project/verilog/pixelSensor_tb.vcd
$date
	Fri Nov 19 01:24:54 2021
$end
$version
	Icarus Verilog
$end
$timescale
	1ps
$end
$scope module pixelSensor_tb $end
$var wire 1 ! anaReset $end
$var wire 8 " pixData [7:0] $end
$var wire 1 # anaRamp $end
$var wire 1 $ anaBias1 $end
$var reg 1 % clk $end
$var reg 1 & convert $end
$var reg 8 ' data [7:0] $end
$var reg 1 ( erase $end
$var reg 1 ) expose $end
$var reg 3 * next_state [2:0] $end
$var reg 8 + pixelDataOut [7:0] $end
$var reg 1 , read $end
$var reg 1 - reset $end
$var reg 3 . state [2:0] $end
$var integer 32 / counter [31:0] $end
$scope module ps1 $end
$var wire 8 0 DATA [7:0] $end
$var wire 1 ( ERASE $end
$var wire 1 ) EXPOSE $end
$var wire 1 # RAMP $end
$var wire 1 , READ $end
$var wire 1 ! RESET $end
$var wire 1 $ VBN1 $end
$var reg 1 1 cmp $end
$var reg 8 2 p_data [7:0] $end
$var real 1 3 adc $end
$var real 1 4 lsb $end
$var real 1 5 tmp $end
$var real 1 6 v_erase $end
$upscope $end
$upscope $end
$enddefinitions $end
#500000
$dumpvars
r1.2 6
r0 5
r0.004705882352941176 4
r0 3
bx 2
x1
bx 0
b0 /
b0 .
0-
x,
b0 +
b0 *
x)
x(
b0 '
0&
1%
x$
0#
bx "
1!
$end
#1000000
b0 "
b0 0
01
b0 2
r1.2 5
0)
0,
1(
0$
0%
#1500000
b1 /
1%
#2000000
0%
#2500000
b10 /
1%
#3000000
0%
#3500000
b11 /
1%
#4000000
0%
#4500000
b100 /
1%
#5000000
0%
#5500000
b101 /
1%
#6000000
0%
#6500000
b100 .
b1 *
b110 /
1%
#7000000
0(
0%
#7500000
b1 .
b0 /
1%
#8000000
1)
0%
#8500000
r1.197647058823529 5
b1 /
1$
1%
#9000000
0$
0%
#9500000
r1.195294117647059 5
b10 /
1$
1%
#10000000
0$
0%
#10500000
r1.192941176470588 5
b11 /
1$
1%
#11000000
0$
0%
#11500000
r1.190588235294117 5
b100 /
1$
1%
#12000000
0$
0%
#12500000
r1.188235294117647 5
b101 /
1$
1%
#13000000
0$
0%
#13500000
r1.185882352941176 5
b110 /
1$
1%
#14000000
0$
0%
#14500000
r1.183529411764705 5
b111 /
1$
1%
#15000000
0$
0%
#15500000
r1.181176470588235 5
b1000 /
1$
1%
#16000000
0$
0%
#16500000
r1.178823529411764 5
b1001 /
1$
1%
#17000000
0$
0%
#17500000
r1.176470588235293 5
b1010 /
1$
1%
#18000000
0$
0%
#18500000
r1.174117647058823 5
b1011 /
1$
1%
#19000000
0$
0%
#19500000
r1.171764705882352 5
b1100 /
1$
1%
#20000000
0$
0%
#20500000
r1.169411764705881 5
b1101 /
1$
1%
#21000000
0$
0%
#21500000
r1.167058823529411 5
b1110 /
1$
1%
#22000000
0$
0%
#22500000
r1.16470588235294 5
b1111 /
1$
1%
#23000000
0$
0%
#23500000
r1.162352941176469 5
b10000 /
1$
1%
#24000000
0$
0%
#24500000
r1.159999999999999 5
b10001 /
1$
1%
#25000000
0$
0%
#25500000
r1.157647058823528 5
b10010 /
1$
1%
#26000000
0$
0%
#26500000
r1.155294117647057 5
b10011 /
1$
1%
#27000000
0$
0%
#27500000
r1.152941176470587 5
b10100 /
1$
1%
#28000000
0$
0%
#28500000
r1.150588235294116 5
b10101 /
1$
1%
#29000000
0$
0%
#29500000
r1.148235294117645 5
b10110 /
1$
1%
#30000000
0$
0%
#30500000
r1.145882352941175 5
b10111 /
1$
1%
#31000000
0$
0%
#31500000
r1.143529411764704 5
b11000 /
1$
1%
#32000000
0$
0%
#32500000
r1.141176470588233 5
b11001 /
1$
1%
#33000000
0$
0%
#33500000
r1.138823529411763 5
b11010 /
1$
1%
#34000000
0$
0%
#34500000
r1.136470588235292 5
b11011 /
1$
1%
#35000000
0$
0%
#35500000
r1.134117647058821 5
b11100 /
1$
1%
#36000000
0$
0%
#36500000
r1.131764705882351 5
b11101 /
1$
1%
#37000000
0$
0%
#37500000
r1.12941176470588 5
b11110 /
1$
1%
#38000000
0$
0%
#38500000
r1.127058823529409 5
b11111 /
1$
1%
#39000000
0$
0%
#39500000
r1.124705882352939 5
b100000 /
1$
1%
#40000000
0$
0%
#40500000
r1.122352941176468 5
b100001 /
1$
1%
#41000000
0$
0%
#41500000
r1.119999999999997 5
b100010 /
1$
1%
#42000000
0$
0%
#42500000
r1.117647058823527 5
b100011 /
1$
1%
#43000000
0$
0%
#43500000
r1.115294117647056 5
b100100 /
1$
1%
#44000000
0$
0%
#44500000
r1.112941176470585 5
b100101 /
1$
1%
#45000000
0$
0%
#45500000
r1.110588235294115 5
b100110 /
1$
1%
#46000000
0$
0%
#46500000
r1.108235294117644 5
b100111 /
1$
1%
#47000000
0$
0%
#47500000
r1.105882352941173 5
b101000 /
1$
1%
#48000000
0$
0%
#48500000
r1.103529411764703 5
b101001 /
1$
1%
#49000000
0$
0%
#49500000
r1.101176470588232 5
b101010 /
1$
1%
#50000000
0$
0%
#50500000
r1.098823529411761 5
b101011 /
1$
1%
#51000000
0$
0%
#51500000
r1.096470588235291 5
b101100 /
1$
1%
#52000000
0$
0%
#52500000
r1.09411764705882 5
b101101 /
1$
1%
#53000000
0$
0%
#53500000
r1.091764705882349 5
b101110 /
1$
1%
#54000000
0$
0%
#54500000
r1.089411764705879 5
b101111 /
1$
1%
#55000000
0$
0%
#55500000
r1.087058823529408 5
b110000 /
1$
1%
#56000000
0$
0%
#56500000
r1.084705882352937 5
b110001 /
1$
1%
#57000000
0$
0%
#57500000
r1.082352941176467 5
b110010 /
1$
1%
#58000000
0$
0%
#58500000
r1.079999999999996 5
b110011 /
1$
1%
#59000000
0$
0%
#59500000
r1.077647058823525 5
b110100 /
1$
1%
#60000000
0$
0%
#60500000
r1.075294117647055 5
b110101 /
1$
1%
#61000000
0$
0%
#61500000
r1.072941176470584 5
b110110 /
1$
1%
#62000000
0$
0%
#62500000
r1.070588235294113 5
b110111 /
1$
1%
#63000000
0$
0%
#63500000
r1.068235294117643 5
b111000 /
1$
1%
#64000000
0$
0%
#64500000
r1.065882352941172 5
b111001 /
1$
1%
#65000000
0$
0%
#65500000
r1.063529411764701 5
b111010 /
1$
1%
#66000000
0$
0%
#66500000
r1.061176470588231 5
b111011 /
1$
1%
#67000000
0$
0%
#67500000
r1.05882352941176 5
b111100 /
1$
1%
#68000000
0$
0%
#68500000
r1.056470588235289 5
b111101 /
1$
1%
#69000000
0$
0%
#69500000
r1.054117647058818 5
b111110 /
1$
1%
#70000000
0$
0%
#70500000
r1.051764705882348 5
b111111 /
1$
1%
#71000000
0$
0%
#71500000
r1.049411764705877 5
b1000000 /
1$
1%
#72000000
0$
0%
#72500000
r1.047058823529406 5
b1000001 /
1$
1%
#73000000
0$
0%
#73500000
r1.044705882352936 5
b1000010 /
1$
1%
#74000000
0$
0%
#74500000
r1.042352941176465 5
b1000011 /
1$
1%
#75000000
0$
0%
#75500000
r1.039999999999994 5
b1000100 /
1$
1%
#76000000
0$
0%
#76500000
r1.037647058823524 5
b1000101 /
1$
1%
#77000000
0$
0%
#77500000
r1.035294117647053 5
b1000110 /
1$
1%
#78000000
0$
0%
#78500000
r1.032941176470582 5
b1000111 /
1$
1%
#79000000
0$
0%
#79500000
r1.030588235294112 5
b1001000 /
1$
1%
#80000000
0$
0%
#80500000
r1.028235294117641 5
b1001001 /
1$
1%
#81000000
0$
0%
#81500000
r1.02588235294117 5
b1001010 /
1$
1%
#82000000
0$
0%
#82500000
r1.0235294117647 5
b1001011 /
1$
1%
#83000000
0$
0%
#83500000
r1.021176470588229 5
b1001100 /
1$
1%
#84000000
0$
0%
#84500000
r1.018823529411758 5
b1001101 /
1$
1%
#85000000
0$
0%
#85500000
r1.016470588235288 5
b1001110 /
1$
1%
#86000000
0$
0%
#86500000
r1.014117647058817 5
b1001111 /
1$
1%
#87000000
0$
0%
#87500000
r1.011764705882346 5
b1010000 /
1$
1%
#88000000
0$
0%
#88500000
r1.009411764705876 5
b1010001 /
1$
1%
#89000000
0$
0%
#89500000
r1.007058823529405 5
b1010010 /
1$
1%
#90000000
0$
0%
#90500000
r1.004705882352934 5
b1010011 /
1$
1%
#91000000
0$
0%
#91500000
r1.002352941176464 5
b1010100 /
1$
1%
#92000000
0$
0%
#92500000
r0.9999999999999932 5
b1010101 /
1$
1%
#93000000
0$
0%
#93500000
r0.9976470588235227 5
b1010110 /
1$
1%
#94000000
0$
0%
#94500000
r0.9952941176470521 5
b1010111 /
1$
1%
#95000000
0$
0%
#95500000
r0.9929411764705816 5
b1011000 /
1$
1%
#96000000
0$
0%
#96500000
r0.990588235294111 5
b1011001 /
1$
1%
#97000000
0$
0%
#97500000
r0.9882352941176404 5
b1011010 /
1$
1%
#98000000
0$
0%
#98500000
r0.9858823529411699 5
b1011011 /
1$
1%
#99000000
0$
0%
#99500000
r0.9835294117646993 5
b1011100 /
1$
1%
#100000000
0$
0%
#100500000
r0.9811764705882288 5
b1011101 /
1$
1%
#101000000
0$
0%
#101500000
r0.9788235294117582 5
b1011110 /
1$
1%
#102000000
0$
0%
#102500000
r0.9764705882352877 5
b1011111 /
1$
1%
#103000000
0$
0%
#103500000
r0.9741176470588171 5
b1100000 /
1$
1%
#104000000
0$
0%
#104500000
r0.9717647058823465 5
b1100001 /
1$
1%
#105000000
0$
0%
#105500000
r0.969411764705876 5
b1100010 /
1$
1%
#106000000
0$
0%
#106500000
r0.9670588235294054 5
b1100011 /
1$
1%
#107000000
0$
0%
#107500000
r0.9647058823529349 5
b1100100 /
1$
1%
#108000000
0$
0%
#108500000
r0.9623529411764643 5
b1100101 /
1$
1%
#109000000
0$
0%
#109500000
r0.9599999999999937 5
b1100110 /
1$
1%
#110000000
0$
0%
#110500000
r0.9576470588235232 5
b1100111 /
1$
1%
#111000000
0$
0%
#111500000
r0.9552941176470526 5
b1101000 /
1$
1%
#112000000
0$
0%
#112500000
r0.9529411764705821 5
b1101001 /
1$
1%
#113000000
0$
0%
#113500000
r0.9505882352941115 5
b1101010 /
1$
1%
#114000000
0$
0%
#114500000
r0.948235294117641 5
b1101011 /
1$
1%
#115000000
0$
0%
#115500000
r0.9458823529411704 5
b1101100 /
1$
1%
#116000000
0$
0%
#116500000
r0.9435294117646998 5
b1101101 /
1$
1%
#117000000
0$
0%
#117500000
r0.9411764705882293 5
b1101110 /
1$
1%
#118000000
0$
0%
#118500000
r0.9388235294117587 5
b1101111 /
1$
1%
#119000000
0$
0%
#119500000
r0.9364705882352882 5
b1110000 /
1$
1%
#120000000
0$
0%
#120500000
r0.9341176470588176 5
b1110001 /
1$
1%
#121000000
0$
0%
#121500000
r0.9317647058823471 5
b1110010 /
1$
1%
#122000000
0$
0%
#122500000
r0.9294117647058765 5
b1110011 /
1$
1%
#123000000
0$
0%
#123500000
r0.9270588235294059 5
b1110100 /
1$
1%
#124000000
0$
0%
#124500000
r0.9247058823529354 5
b1110101 /
1$
1%
#125000000
0$
0%
#125500000
r0.9223529411764648 5
b1110110 /
1$
1%
#126000000
0$
0%
#126500000
r0.9199999999999943 5
b1110111 /
1$
1%
#127000000
0$
0%
#127500000
r0.9176470588235237 5
b1111000 /
1$
1%
#128000000
0$
0%
#128500000
r0.9152941176470532 5
b1111001 /
1$
1%
#129000000
0$
0%
#129500000
r0.9129411764705826 5
b1111010 /
1$
1%
#130000000
0$
0%
#130500000
r0.910588235294112 5
b1111011 /
1$
1%
#131000000
0$
0%
#131500000
r0.9082352941176415 5
b1111100 /
1$
1%
#132000000
0$
0%
#132500000
r0.9058823529411709 5
b1111101 /
1$
1%
#133000000
0$
0%
#133500000
r0.9035294117647004 5
b1111110 /
1$
1%
#134000000
0$
0%
#134500000
r0.9011764705882298 5
b1111111 /
1$
1%
#135000000
0$
0%
#135500000
r0.8988235294117592 5
b10000000 /
1$
1%
#136000000
0$
0%
#136500000
r0.8964705882352887 5
b10000001 /
1$
1%
#137000000
0$
0%
#137500000
r0.8941176470588181 5
b10000010 /
1$
1%
#138000000
0$
0%
#138500000
r0.8917647058823476 5
b10000011 /
1$
1%
#139000000
0$
0%
#139500000
r0.889411764705877 5
b10000100 /
1$
1%
#140000000
0$
0%
#140500000
r0.8870588235294065 5
b10000101 /
1$
1%
#141000000
0$
0%
#141500000
r0.8847058823529359 5
b10000110 /
1$
1%
#142000000
0$
0%
#142500000
r0.8823529411764653 5
b10000111 /
1$
1%
#143000000
0$
0%
#143500000
r0.8799999999999948 5
b10001000 /
1$
1%
#144000000
0$
0%
#144500000
r0.8776470588235242 5
b10001001 /
1$
1%
#145000000
0$
0%
#145500000
r0.8752941176470537 5
b10001010 /
1$
1%
#146000000
0$
0%
#146500000
r0.8729411764705831 5
b10001011 /
1$
1%
#147000000
0$
0%
#147500000
r0.8705882352941126 5
b10001100 /
1$
1%
#148000000
0$
0%
#148500000
r0.868235294117642 5
b10001101 /
1$
1%
#149000000
0$
0%
#149500000
r0.8658823529411714 5
b10001110 /
1$
1%
#150000000
0$
0%
#150500000
r0.8635294117647009 5
b10001111 /
1$
1%
#151000000
0$
0%
#151500000
r0.8611764705882303 5
b10010000 /
1$
1%
#152000000
0$
0%
#152500000
r0.8588235294117598 5
b10010001 /
1$
1%
#153000000
0$
0%
#153500000
r0.8564705882352892 5
b10010010 /
1$
1%
#154000000
0$
0%
#154500000
r0.8541176470588187 5
b10010011 /
1$
1%
#155000000
0$
0%
#155500000
r0.8517647058823481 5
b10010100 /
1$
1%
#156000000
0$
0%
#156500000
r0.8494117647058775 5
b10010101 /
1$
1%
#157000000
0$
0%
#157500000
r0.847058823529407 5
b10010110 /
1$
1%
#158000000
0$
0%
#158500000
r0.8447058823529364 5
b10010111 /
1$
1%
#159000000
0$
0%
#159500000
r0.8423529411764659 5
b10011000 /
1$
1%
#160000000
0$
0%
#160500000
r0.8399999999999953 5
b10011001 /
1$
1%
#161000000
0$
0%
#161500000
r0.8376470588235247 5
b10011010 /
1$
1%
#162000000
0$
0%
#162500000
r0.8352941176470542 5
b10011011 /
1$
1%
#163000000
0$
0%
#163500000
r0.8329411764705836 5
b10011100 /
1$
1%
#164000000
0$
0%
#164500000
r0.8305882352941131 5
b10011101 /
1$
1%
#165000000
0$
0%
#165500000
r0.8282352941176425 5
b10011110 /
1$
1%
#166000000
0$
0%
#166500000
r0.825882352941172 5
b10011111 /
1$
1%
#167000000
0$
0%
#167500000
r0.8235294117647014 5
b10100000 /
1$
1%
#168000000
0$
0%
#168500000
r0.8211764705882308 5
b10100001 /
1$
1%
#169000000
0$
0%
#169500000
r0.8188235294117603 5
b10100010 /
1$
1%
#170000000
0$
0%
#170500000
r0.8164705882352897 5
b10100011 /
1$
1%
#171000000
0$
0%
#171500000
r0.8141176470588192 5
b10100100 /
1$
1%
#172000000
0$
0%
#172500000
r0.8117647058823486 5
b10100101 /
1$
1%
#173000000
0$
0%
#173500000
r0.8094117647058781 5
b10100110 /
1$
1%
#174000000
0$
0%
#174500000
r0.8070588235294075 5
b10100111 /
1$
1%
#175000000
0$
0%
#175500000
r0.8047058823529369 5
b10101000 /
1$
1%
#176000000
0$
0%
#176500000
r0.8023529411764664 5
b10101001 /
1$
1%
#177000000
0$
0%
#177500000
r0.7999999999999958 5
b10101010 /
1$
1%
#178000000
0$
0%
#178500000
r0.7976470588235253 5
b10101011 /
1$
1%
#179000000
0$
0%
#179500000
r0.7952941176470547 5
b10101100 /
1$
1%
#180000000
0$
0%
#180500000
r0.7929411764705842 5
b10101101 /
1$
1%
#181000000
0$
0%
#181500000
r0.7905882352941136 5
b10101110 /
1$
1%
#182000000
0$
0%
#182500000
r0.788235294117643 5
b10101111 /
1$
1%
#183000000
0$
0%
#183500000
r0.7858823529411725 5
b10110000 /
1$
1%
#184000000
0$
0%
#184500000
r0.7835294117647019 5
b10110001 /
1$
1%
#185000000
0$
0%
#185500000
r0.7811764705882314 5
b10110010 /
1$
1%
#186000000
0$
0%
#186500000
r0.7788235294117608 5
b10110011 /
1$
1%
#187000000
0$
0%
#187500000
r0.7764705882352902 5
b10110100 /
1$
1%
#188000000
0$
0%
#188500000
r0.7741176470588197 5
b10110101 /
1$
1%
#189000000
0$
0%
#189500000
r0.7717647058823491 5
b10110110 /
1$
1%
#190000000
0$
0%
#190500000
r0.7694117647058786 5
b10110111 /
1$
1%
#191000000
0$
0%
#191500000
r0.767058823529408 5
b10111000 /
1$
1%
#192000000
0$
0%
#192500000
r0.7647058823529375 5
b10111001 /
1$
1%
#193000000
0$
0%
#193500000
r0.7623529411764669 5
b10111010 /
1$
1%
#194000000
0$
0%
#194500000
r0.7599999999999963 5
b10111011 /
1$
1%
#195000000
0$
0%
#195500000
r0.7576470588235258 5
b10111100 /
1$
1%
#196000000
0$
0%
#196500000
r0.7552941176470552 5
b10111101 /
1$
1%
#197000000
0$
0%
#197500000
r0.7529411764705847 5
b10111110 /
1$
1%
#198000000
0$
0%
#198500000
r0.7505882352941141 5
b10111111 /
1$
1%
#199000000
0$
0%
#199500000
r0.7482352941176436 5
b11000000 /
1$
1%
#200000000
0$
0%
#200500000
r0.745882352941173 5
b11000001 /
1$
1%
#201000000
0$
0%
#201500000
r0.7435294117647024 5
b11000010 /
1$
1%
#202000000
0$
0%
#202500000
r0.7411764705882319 5
b11000011 /
1$
1%
#203000000
0$
0%
#203500000
r0.7388235294117613 5
b11000100 /
1$
1%
#204000000
0$
0%
#204500000
r0.7364705882352908 5
b11000101 /
1$
1%
#205000000
0$
0%
#205500000
r0.7341176470588202 5
b11000110 /
1$
1%
#206000000
0$
0%
#206500000
r0.7317647058823497 5
b11000111 /
1$
1%
#207000000
0$
0%
#207500000
r0.7294117647058791 5
b11001000 /
1$
1%
#208000000
0$
0%
#208500000
r0.7270588235294085 5
b11001001 /
1$
1%
#209000000
0$
0%
#209500000
r0.724705882352938 5
b11001010 /
1$
1%
#210000000
0$
0%
#210500000
r0.7223529411764674 5
b11001011 /
1$
1%
#211000000
0$
0%
#211500000
r0.7199999999999969 5
b11001100 /
1$
1%
#212000000
0$
0%
#212500000
r0.7176470588235263 5
b11001101 /
1$
1%
#213000000
0$
0%
#213500000
r0.7152941176470557 5
b11001110 /
1$
1%
#214000000
0$
0%
#214500000
r0.7129411764705852 5
b11001111 /
1$
1%
#215000000
0$
0%
#215500000
r0.7105882352941146 5
b11010000 /
1$
1%
#216000000
0$
0%
#216500000
r0.7082352941176441 5
b11010001 /
1$
1%
#217000000
0$
0%
#217500000
r0.7058823529411735 5
b11010010 /
1$
1%
#218000000
0$
0%
#218500000
r0.703529411764703 5
b11010011 /
1$
1%
#219000000
0$
0%
#219500000
r0.7011764705882324 5
b11010100 /
1$
1%
#220000000
0$
0%
#220500000
r0.6988235294117618 5
b11010101 /
1$
1%
#221000000
0$
0%
#221500000
r0.6964705882352913 5
b11010110 /
1$
1%
#222000000
0$
0%
#222500000
r0.6941176470588207 5
b11010111 /
1$
1%
#223000000
0$
0%
#223500000
r0.6917647058823502 5
b11011000 /
1$
1%
#224000000
0$
0%
#224500000
r0.6894117647058796 5
b11011001 /
1$
1%
#225000000
0$
0%
#225500000
r0.6870588235294091 5
b11011010 /
1$
1%
#226000000
0$
0%
#226500000
r0.6847058823529385 5
b11011011 /
1$
1%
#227000000
0$
0%
#227500000
r0.6823529411764679 5
b11011100 /
1$
1%
#228000000
0$
0%
#228500000
r0.6799999999999974 5
b11011101 /
1$
1%
#229000000
0$
0%
#229500000
r0.6776470588235268 5
b11011110 /
1$
1%
#230000000
0$
0%
#230500000
r0.6752941176470563 5
b11011111 /
1$
1%
#231000000
0$
0%
#231500000
r0.6729411764705857 5
b11100000 /
1$
1%
#232000000
0$
0%
#232500000
r0.6705882352941152 5
b11100001 /
1$
1%
#233000000
0$
0%
#233500000
r0.6682352941176446 5
b11100010 /
1$
1%
#234000000
0$
0%
#234500000
r0.665882352941174 5
b11100011 /
1$
1%
#235000000
0$
0%
#235500000
r0.6635294117647035 5
b11100100 /
1$
1%
#236000000
0$
0%
#236500000
r0.6611764705882329 5
b11100101 /
1$
1%
#237000000
0$
0%
#237500000
r0.6588235294117624 5
b11100110 /
1$
1%
#238000000
0$
0%
#238500000
r0.6564705882352918 5
b11100111 /
1$
1%
#239000000
0$
0%
#239500000
r0.6541176470588212 5
b11101000 /
1$
1%
#240000000
0$
0%
#240500000
r0.6517647058823507 5
b11101001 /
1$
1%
#241000000
0$
0%
#241500000
r0.6494117647058801 5
b11101010 /
1$
1%
#242000000
0$
0%
#242500000
r0.6470588235294096 5
b11101011 /
1$
1%
#243000000
0$
0%
#243500000
r0.644705882352939 5
b11101100 /
1$
1%
#244000000
0$
0%
#244500000
r0.6423529411764685 5
b11101101 /
1$
1%
#245000000
0$
0%
#245500000
r0.6399999999999979 5
b11101110 /
1$
1%
#246000000
0$
0%
#246500000
r0.6376470588235273 5
b11101111 /
1$
1%
#247000000
0$
0%
#247500000
r0.6352941176470568 5
b11110000 /
1$
1%
#248000000
0$
0%
#248500000
r0.6329411764705862 5
b11110001 /
1$
1%
#249000000
0$
0%
#249500000
r0.6305882352941157 5
b11110010 /
1$
1%
#250000000
0$
0%
#250500000
r0.6282352941176451 5
b11110011 /
1$
1%
#251000000
0$
0%
#251500000
r0.6258823529411746 5
b11110100 /
1$
1%
#252000000
0$
0%
#252500000
r0.623529411764704 5
b11110101 /
1$
1%
#253000000
0$
0%
#253500000
r0.6211764705882334 5
b11110110 /
1$
1%
#254000000
0$
0%
#254500000
r0.6188235294117629 5
b11110111 /
1$
1%
#255000000
0$
0%
#255500000
r0.6164705882352923 5
b11111000 /
1$
1%
#256000000
0$
0%
#256500000
r0.6141176470588218 5
b11111001 /
1$
1%
#257000000
0$
0%
#257500000
r0.6117647058823512 5
b11111010 /
1$
1%
#258000000
0$
0%
#258500000
r0.6094117647058807 5
b11111011 /
1$
1%
#259000000
0$
0%
#259500000
r0.6070588235294101 5
b11111100 /
1$
1%
#260000000
0$
0%
#260500000
r0.6047058823529395 5
b11111101 /
1$
1%
#261000000
0$
0%
#261500000
r0.602352941176469 5
b11111110 /
1$
1%
#262000000
0$
0%
#262500000
r0.5999999999999984 5
b11111111 /
1$
1%
#263000000
0$
0%
#263500000
b100 .
b10 *
r0.5976470588235279 5
b100000000 /
1$
1%
#264000000
0)
0$
0%
#264500000
b10 .
b0 /
1%
#265000000
1&
0%
#265500000
b1 2
b1 "
b1 0
r0.004705882352941176 3
b1 /
b1 '
1#
1%
#266000000
0#
0%
#266500000
b10 2
b10 "
b10 0
r0.009411764705882352 3
b10 '
b10 /
1#
1%
#267000000
0#
0%
#267500000
b11 2
b11 "
b11 0
r0.01411764705882353 3
b11 /
b11 '
1#
1%
#268000000
0#
0%
#268500000
b100 2
b100 "
b100 0
r0.0188235294117647 3
b100 '
b100 /
1#
1%
#269000000
0#
0%
#269500000
b101 2
b101 "
b101 0
r0.02352941176470588 3
b101 /
b101 '
1#
1%
#270000000
0#
0%
#270500000
b110 2
b110 "
b110 0
r0.02823529411764706 3
b110 '
b110 /
1#
1%
#271000000
0#
0%
#271500000
b111 2
b111 "
b111 0
r0.03294117647058824 3
b111 /
b111 '
1#
1%
#272000000
0#
0%
#272500000
b1000 2
b1000 "
b1000 0
r0.03764705882352942 3
b1000 '
b1000 /
1#
1%
#273000000
0#
0%
#273500000
b1001 2
b1001 "
b1001 0
r0.04235294117647059 3
b1001 /
b1001 '
1#
1%
#274000000
0#
0%
#274500000
b1010 2
b1010 "
b1010 0
r0.04705882352941177 3
b1010 '
b1010 /
1#
1%
#275000000
0#
0%
#275500000
b1011 2
b1011 "
b1011 0
r0.05176470588235295 3
b1011 /
b1011 '
1#
1%
#276000000
0#
0%
#276500000
b1100 2
b1100 "
b1100 0
r0.05647058823529413 3
b1100 '
b1100 /
1#
1%
#277000000
0#
0%
#277500000
b1101 2
b1101 "
b1101 0
r0.0611764705882353 3
b1101 /
b1101 '
1#
1%
#278000000
0#
0%
#278500000
b1110 2
b1110 "
b1110 0
r0.06588235294117648 3
b1110 '
b1110 /
1#
1%
#279000000
0#
0%
#279500000
b1111 2
b1111 "
b1111 0
r0.07058823529411765 3
b1111 /
b1111 '
1#
1%
#280000000
0#
0%
#280500000
b10000 2
b10000 "
b10000 0
r0.07529411764705882 3
b10000 '
b10000 /
1#
1%
#281000000
0#
0%
#281500000
b10001 2
b10001 "
b10001 0
r0.07999999999999999 3
b10001 /
b10001 '
1#
1%
#282000000
0#
0%
#282500000
b10010 2
b10010 "
b10010 0
r0.08470588235294116 3
b10010 '
b10010 /
1#
1%
#283000000
0#
0%
#283500000
b10011 2
b10011 "
b10011 0
r0.08941176470588233 3
b10011 /
b10011 '
1#
1%
#284000000
0#
0%
#284500000
b10100 2
b10100 "
b10100 0
r0.0941176470588235 3
b10100 '
b10100 /
1#
1%
#285000000
0#
0%
#285500000
b10101 2
b10101 "
b10101 0
r0.09882352941176467 3
b10101 /
b10101 '
1#
1%
#286000000
0#
0%
#286500000
b10110 2
b10110 "
b10110 0
r0.1035294117647058 3
b10110 '
b10110 /
1#
1%
#287000000
0#
0%
#287500000
b10111 2
b10111 "
b10111 0
r0.108235294117647 3
b10111 /
b10111 '
1#
1%
#288000000
0#
0%
#288500000
b11000 2
b11000 "
b11000 0
r0.1129411764705882 3
b11000 '
b11000 /
1#
1%
#289000000
0#
0%
#289500000
b11001 2
b11001 "
b11001 0
r0.1176470588235294 3
b11001 /
b11001 '
1#
1%
#290000000
0#
0%
#290500000
b11010 2
b11010 "
b11010 0
r0.1223529411764705 3
b11010 '
b11010 /
1#
1%
#291000000
0#
0%
#291500000
b11011 2
b11011 "
b11011 0
r0.1270588235294117 3
b11011 /
b11011 '
1#
1%
#292000000
0#
0%
#292500000
b11100 2
b11100 "
b11100 0
r0.1317647058823529 3
b11100 '
b11100 /
1#
1%
#293000000
0#
0%
#293500000
b11101 2
b11101 "
b11101 0
r0.136470588235294 3
b11101 /
b11101 '
1#
1%
#294000000
0#
0%
#294500000
b11110 2
b11110 "
b11110 0
r0.1411764705882352 3
b11110 '
b11110 /
1#
1%
#295000000
0#
0%
#295500000
b11111 2
b11111 "
b11111 0
r0.1458823529411764 3
b11111 /
b11111 '
1#
1%
#296000000
0#
0%
#296500000
b100000 2
b100000 "
b100000 0
r0.1505882352941176 3
b100000 '
b100000 /
1#
1%
#297000000
0#
0%
#297500000
b100001 2
b100001 "
b100001 0
r0.1552941176470587 3
b100001 /
b100001 '
1#
1%
#298000000
0#
0%
#298500000
b100010 2
b100010 "
b100010 0
r0.1599999999999999 3
b100010 '
b100010 /
1#
1%
#299000000
0#
0%
#299500000
b100011 2
b100011 "
b100011 0
r0.1647058823529411 3
b100011 /
b100011 '
1#
1%
#300000000
0#
0%
#300500000
b100100 2
b100100 "
b100100 0
r0.1694117647058822 3
b100100 '
b100100 /
1#
1%
#301000000
0#
0%
#301500000
b100101 2
b100101 "
b100101 0
r0.1741176470588234 3
b100101 /
b100101 '
1#
1%
#302000000
0#
0%
#302500000
b100110 2
b100110 "
b100110 0
r0.1788235294117646 3
b100110 '
b100110 /
1#
1%
#303000000
0#
0%
#303500000
b100111 2
b100111 "
b100111 0
r0.1835294117647057 3
b100111 /
b100111 '
1#
1%
#304000000
0#
0%
#304500000
b101000 2
b101000 "
b101000 0
r0.1882352941176469 3
b101000 '
b101000 /
1#
1%
#305000000
0#
0%
#305500000
b101001 2
b101001 "
b101001 0
r0.1929411764705881 3
b101001 /
b101001 '
1#
1%
#306000000
0#
0%
#306500000
b101010 2
b101010 "
b101010 0
r0.1976470588235293 3
b101010 '
b101010 /
1#
1%
#307000000
0#
0%
#307500000
b101011 2
b101011 "
b101011 0
r0.2023529411764704 3
b101011 /
b101011 '
1#
1%
#308000000
0#
0%
#308500000
b101100 2
b101100 "
b101100 0
r0.2070588235294116 3
b101100 '
b101100 /
1#
1%
#309000000
0#
0%
#309500000
b101101 2
b101101 "
b101101 0
r0.2117647058823528 3
b101101 /
b101101 '
1#
1%
#310000000
0#
0%
#310500000
b101110 2
b101110 "
b101110 0
r0.2164705882352939 3
b101110 '
b101110 /
1#
1%
#311000000
0#
0%
#311500000
b101111 2
b101111 "
b101111 0
r0.2211764705882351 3
b101111 /
b101111 '
1#
1%
#312000000
0#
0%
#312500000
b110000 2
b110000 "
b110000 0
r0.2258823529411763 3
b110000 '
b110000 /
1#
1%
#313000000
0#
0%
#313500000
b110001 2
b110001 "
b110001 0
r0.2305882352941175 3
b110001 /
b110001 '
1#
1%
#314000000
0#
0%
#314500000
b110010 2
b110010 "
b110010 0
r0.2352941176470586 3
b110010 '
b110010 /
1#
1%
#315000000
0#
0%
#315500000
b110011 2
b110011 "
b110011 0
r0.2399999999999998 3
b110011 /
b110011 '
1#
1%
#316000000
0#
0%
#316500000
b110100 2
b110100 "
b110100 0
r0.244705882352941 3
b110100 '
b110100 /
1#
1%
#317000000
0#
0%
#317500000
b110101 2
b110101 "
b110101 0
r0.2494117647058821 3
b110101 /
b110101 '
1#
1%
#318000000
0#
0%
#318500000
b110110 2
b110110 "
b110110 0
r0.2541176470588233 3
b110110 '
b110110 /
1#
1%
#319000000
0#
0%
#319500000
b110111 2
b110111 "
b110111 0
r0.2588235294117645 3
b110111 /
b110111 '
1#
1%
#320000000
0#
0%
#320500000
b111000 2
b111000 "
b111000 0
r0.2635294117647057 3
b111000 '
b111000 /
1#
1%
#321000000
0#
0%
#321500000
b111001 2
b111001 "
b111001 0
r0.2682352941176468 3
b111001 /
b111001 '
1#
1%
#322000000
0#
0%
#322500000
b111010 2
b111010 "
b111010 0
r0.272941176470588 3
b111010 '
b111010 /
1#
1%
#323000000
0#
0%
#323500000
b111011 2
b111011 "
b111011 0
r0.2776470588235292 3
b111011 /
b111011 '
1#
1%
