project/verilog/pixelArray_tb.vcd
$date
	Wed Nov 17 14:02:40 2021
$end
$version
	Icarus Verilog
$end
$timescale
	1ps
$end
$scope module pixelArray_tb $end
$var wire 1 ! anaReset $end
$var wire 8 " pixData11 [7:0] $end
$var wire 8 # pixData12 [7:0] $end
$var wire 8 $ pixData21 [7:0] $end
$var wire 8 % pixData22 [7:0] $end
$var wire 1 & anaRamp $end
$var wire 1 ' anaBias1 $end
$var reg 1 ( clk $end
$var reg 1 ) convert $end
$var reg 8 * data [7:0] $end
$var reg 1 + erase $end
$var reg 1 , expose $end
$var reg 3 - next_state [2:0] $end
$var reg 8 . pixelDataOut11 [7:0] $end
$var reg 8 / pixelDataOut12 [7:0] $end
$var reg 8 0 pixelDataOut21 [7:0] $end
$var reg 8 1 pixelDataOut22 [7:0] $end
$var reg 1 2 read1 $end
$var reg 1 3 read2 $end
$var reg 1 4 reset $end
$var reg 3 5 state [2:0] $end
$var integer 32 6 counter [31:0] $end
$scope module pa1 $end
$var wire 8 7 DATA11 [7:0] $end
$var wire 8 8 DATA12 [7:0] $end
$var wire 8 9 DATA21 [7:0] $end
$var wire 8 : DATA22 [7:0] $end
$var wire 1 + ERASE $end
$var wire 1 , EXPOSE $end
$var wire 1 & RAMP $end
$var wire 1 2 READ1 $end
$var wire 1 3 READ2 $end
$var wire 1 ! RESET $end
$var wire 1 ' VBN1 $end
$scope module px11 $end
$var wire 8 ; DATA [7:0] $end
$var wire 1 + ERASE $end
$var wire 1 , EXPOSE $end
$var wire 1 & RAMP $end
$var wire 1 2 READ $end
$var wire 1 ! RESET $end
$var wire 1 ' VBN1 $end
$var reg 1 < cmp $end
$var reg 8 = p_data [7:0] $end
$var real 1 > adc $end
$var real 1 ? lsb $end
$var real 1 @ tmp $end
$var real 1 A v_erase $end
$upscope $end
$scope module px12 $end
$var wire 8 B DATA [7:0] $end
$var wire 1 + ERASE $end
$var wire 1 , EXPOSE $end
$var wire 1 & RAMP $end
$var wire 1 2 READ $end
$var wire 1 ! RESET $end
$var wire 1 ' VBN1 $end
$var reg 1 C cmp $end
$var reg 8 D p_data [7:0] $end
$var real 1 E adc $end
$var real 1 F lsb $end
$var real 1 G tmp $end
$var real 1 H v_erase $end
$upscope $end
$scope module px21 $end
$var wire 8 I DATA [7:0] $end
$var wire 1 + ERASE $end
$var wire 1 , EXPOSE $end
$var wire 1 & RAMP $end
$var wire 1 3 READ $end
$var wire 1 ! RESET $end
$var wire 1 ' VBN1 $end
$var reg 1 J cmp $end
$var reg 8 K p_data [7:0] $end
$var real 1 L adc $end
$var real 1 M lsb $end
$var real 1 N tmp $end
$var real 1 O v_erase $end
$upscope $end
$scope module px22 $end
$var wire 8 P DATA [7:0] $end
$var wire 1 + ERASE $end
$var wire 1 , EXPOSE $end
$var wire 1 & RAMP $end
$var wire 1 3 READ $end
$var wire 1 ! RESET $end
$var wire 1 ' VBN1 $end
$var reg 1 Q cmp $end
$var reg 8 R p_data [7:0] $end
$var real 1 S adc $end
$var real 1 T lsb $end
$var real 1 U tmp $end
$var real 1 V v_erase $end
$upscope $end
$upscope $end
$upscope $end
$enddefinitions $end
#500000
$dumpvars
r1.2 V
r0 U
r0.004705882352941176 T
r0 S
bx R
xQ
bx P
r1.2 O
r0 N
r0.004705882352941176 M
r0 L
bx K
xJ
bx I
r1.2 H
r0 G
r0.004705882352941176 F
r0 E
bx D
xC
bx B
r1.2 A
r0 @
r0.004705882352941176 ?
r0 >
bx =
x<
bx ;
bx :
bx 9
bx 8
bx 7
b0 6
b0 5
04
x3
x2
b0 1
b0 0
b0 /
b0 .
b0 -
x,
x+
b0 *
0)
1(
x'
0&
bx %
bx $
bx #
bx "
1!
$end
#1000000
b0 $
b0 9
b0 I
b0 %
b0 :
b0 P
b0 "
b0 7
b0 ;
b0 #
b0 8
b0 B
0Q
b0 R
r1.2 U
0J
b0 K
r1.2 N
0C
b0 D
r1.2 G
0<
b0 =
r1.2 @
0,
03
02
1+
0'
0(
#1500000
b1 6
1(
#2000000
0(
#2500000
b10 6
1(
#3000000
0(
#3500000
b11 6
1(
#4000000
0(
#4500000
b100 6
1(
#5000000
0(
#5500000
b101 6
1(
#6000000
0(
#6500000
b101 5
b1 -
b110 6
1(
#7000000
0+
0(
#7500000
b1 5
b0 6
1(
#8000000
1,
0(
#8500000
r1.196705882352941 U
r1.197176470588235 N
r1.197647058823529 G
r1.198117647058824 @
b1 6
1'
1(
#9000000
0'
0(
#9500000
r1.196235294117647 @
r1.195294117647059 G
r1.194352941176471 N
r1.193411764705882 U
b10 6
1'
1(
#10000000
0'
0(
#10500000
r1.190117647058823 U
r1.191529411764706 N
r1.192941176470588 G
r1.194352941176471 @
b11 6
1'
1(
#11000000
0'
0(
#11500000
r1.192470588235294 @
r1.190588235294117 G
r1.188705882352941 N
r1.186823529411764 U
b100 6
1'
1(
#12000000
0'
0(
#12500000
r1.183529411764705 U
r1.185882352941177 N
r1.188235294117647 G
r1.190588235294118 @
b101 6
1'
1(
#13000000
0'
0(
#13500000
r1.188705882352941 @
r1.185882352941176 G
r1.183058823529412 N
r1.180235294117647 U
b110 6
1'
1(
#14000000
0'
0(
#14500000
r1.176941176470588 U
r1.180235294117647 N
r1.183529411764705 G
r1.186823529411765 @
b111 6
1'
1(
#15000000
0'
0(
#15500000
r1.184941176470588 @
r1.181176470588235 G
r1.177411764705883 N
r1.173647058823529 U
b1000 6
1'
1(
#16000000
0'
0(
#16500000
r1.17035294117647 U
r1.174588235294118 N
r1.178823529411764 G
r1.183058823529412 @
b1001 6
1'
1(
#17000000
0'
0(
#17500000
r1.181176470588235 @
r1.176470588235293 G
r1.171764705882353 N
r1.167058823529411 U
b1010 6
1'
1(
#18000000
0'
0(
#18500000
r1.163764705882352 U
r1.168941176470589 N
r1.174117647058823 G
r1.179294117647059 @
b1011 6
1'
1(
#19000000
0'
0(
#19500000
r1.177411764705883 @
r1.171764705882352 G
r1.166117647058824 N
r1.160470588235293 U
b1100 6
1'
1(
#20000000
0'
0(
#20500000
r1.157176470588234 U
r1.163294117647059 N
r1.169411764705881 G
r1.175529411764706 @
b1101 6
1'
1(
#21000000
0'
0(
#21500000
r1.17364705882353 @
r1.167058823529411 G
r1.160470588235295 N
r1.153882352941175 U
b1110 6
1'
1(
#22000000
0'
0(
#22500000
r1.150588235294117 U
r1.15764705882353 N
r1.16470588235294 G
r1.171764705882353 @
b1111 6
1'
1(
#23000000
0'
0(
#23500000
r1.169882352941177 @
r1.162352941176469 G
r1.154823529411765 N
r1.147294117647058 U
b10000 6
1'
1(
#24000000
0'
0(
#24500000
r1.143999999999999 U
r1.152000000000001 N
r1.159999999999999 G
r1.168 @
b10001 6
1'
1(
#25000000
0'
0(
#25500000
r1.166117647058824 @
r1.157647058823528 G
r1.149176470588236 N
r1.14070588235294 U
b10010 6
1'
1(
#26000000
0'
0(
#26500000
r1.137411764705881 U
r1.146352941176471 N
r1.155294117647057 G
r1.164235294117647 @
b10011 6
1'
1(
#27000000
0'
0(
#27500000
r1.162352941176471 @
r1.152941176470587 G
r1.143529411764707 N
r1.134117647058822 U
b10100 6
1'
1(
#28000000
0'
0(
#28500000
r1.130823529411763 U
r1.140705882352942 N
r1.150588235294116 G
r1.160470588235295 @
b10101 6
1'
1(
#29000000
0'
0(
#29500000
r1.158588235294118 @
r1.148235294117645 G
r1.137882352941177 N
r1.127529411764704 U
b10110 6
1'
1(
#30000000
0'
0(
#30500000
r1.124235294117645 U
r1.135058823529413 N
r1.145882352941175 G
r1.156705882352942 @
b10111 6
1'
1(
#31000000
0'
0(
#31500000
r1.154823529411765 @
r1.143529411764704 G
r1.132235294117648 N
r1.120941176470587 U
b11000 6
1'
1(
#32000000
0'
0(
#32500000
r1.117647058823528 U
r1.129411764705883 N
r1.141176470588233 G
r1.152941176470589 @
b11001 6
1'
1(
#33000000
0'
0(
#33500000
r1.151058823529412 @
r1.138823529411763 G
r1.126588235294119 N
r1.114352941176469 U
b11010 6
1'
1(
#34000000
0'
0(
#34500000
r1.11105882352941 U
r1.123764705882354 N
r1.136470588235292 G
r1.149176470588236 @
b11011 6
1'
1(
#35000000
0'
0(
#35500000
r1.147294117647059 @
r1.134117647058821 G
r1.120941176470589 N
r1.107764705882351 U
b11100 6
1'
1(
#36000000
0'
0(
#36500000
r1.104470588235292 U
r1.118117647058825 N
r1.131764705882351 G
r1.145411764705883 @
b11101 6
1'
1(
#37000000
0'
0(
#37500000
r1.143529411764707 @
r1.12941176470588 G
r1.11529411764706 N
r1.101176470588233 U
b11110 6
1'
1(
#38000000
0'
0(
#38500000
r1.097882352941174 U
r1.112470588235295 N
r1.127058823529409 G
r1.14164705882353 @
b11111 6
1'
1(
#39000000
0'
0(
#39500000
r1.139764705882354 @
r1.124705882352939 G
r1.109647058823531 N
r1.094588235294115 U
b100000 6
1'
1(
#40000000
0'
0(
#40500000
r1.091294117647057 U
r1.106823529411766 N
r1.122352941176468 G
r1.137882352941177 @
b100001 6
1'
1(
#41000000
0'
0(
#41500000
r1.136000000000001 @
r1.119999999999997 G
r1.104000000000001 N
r1.087999999999998 U
b100010 6
1'
1(
#42000000
0'
0(
#42500000
r1.084705882352939 U
r1.101176470588237 N
r1.117647058823527 G
r1.134117647058824 @
b100011 6
1'
1(
#43000000
0'
0(
#43500000
r1.132235294117648 @
r1.115294117647056 G
r1.098352941176472 N
r1.08141176470588 U
b100100 6
1'
1(
#44000000
0'
0(
#44500000
r1.078117647058821 U
r1.095529411764707 N
r1.112941176470585 G
r1.130352941176471 @
b100101 6
1'
1(
#45000000
0'
0(
#45500000
r1.128470588235295 @
r1.110588235294115 G
r1.092705882352943 N
r1.074823529411762 U
b100110 6
1'
1(
#46000000
0'
0(
#46500000
r1.071529411764703 U
r1.089882352941178 N
r1.108235294117644 G
r1.126588235294119 @
b100111 6
1'
1(
#47000000
0'
0(
#47500000
r1.124705882352942 @
r1.105882352941173 G
r1.087058823529413 N
r1.068235294117644 U
b101000 6
1'
1(
#48000000
0'
0(
#48500000
r1.064941176470585 U
r1.084235294117649 N
r1.103529411764703 G
r1.122823529411766 @
b101001 6
1'
1(
#49000000
0'
0(
#49500000
r1.120941176470589 @
r1.101176470588232 G
r1.081411764705884 N
r1.061647058823527 U
b101010 6
1'
1(
#50000000
0'
0(
#50500000
r1.058352941176468 U
r1.078588235294119 N
r1.098823529411761 G
r1.119058823529413 @
b101011 6
1'
1(
#51000000
0'
0(
#51500000
r1.117176470588236 @
r1.096470588235291 G
r1.075764705882355 N
r1.055058823529409 U
b101100 6
1'
1(
#52000000
0'
0(
#52500000
r1.05176470588235 U
r1.07294117647059 N
r1.09411764705882 G
r1.11529411764706 @
b101101 6
1'
1(
#53000000
0'
0(
#53500000
r1.113411764705883 @
r1.091764705882349 G
r1.070117647058825 N
r1.048470588235291 U
b101110 6
1'
1(
#54000000
0'
0(
#54500000
r1.045176470588232 U
r1.067294117647061 N
r1.089411764705879 G
r1.111529411764707 @
b101111 6
1'
1(
#55000000
0'
0(
#55500000
r1.109647058823531 @
r1.087058823529408 G
r1.064470588235296 N
r1.041882352941173 U
b110000 6
1'
1(
#56000000
0'
0(
#56500000
r1.038588235294114 U
r1.061647058823531 N
r1.084705882352937 G
r1.107764705882354 @
b110001 6
1'
1(
#57000000
0'
0(
#57500000
r1.105882352941178 @
r1.082352941176467 G
r1.058823529411766 N
r1.035294117647055 U
b110010 6
1'
1(
#58000000
0'
0(
#58500000
r1.031999999999996 U
r1.056000000000002 N
r1.079999999999996 G
r1.104000000000001 @
b110011 6
1'
1(
#59000000
0'
0(
#59500000
r1.102117647058825 @
r1.077647058823525 G
r1.053176470588237 N
r1.028705882352938 U
b110100 6
1'
1(
#60000000
0'
0(
#60500000
r1.025411764705879 U
r1.050352941176472 N
r1.075294117647055 G
r1.100235294117648 @
b110101 6
1'
1(
#61000000
0'
0(
#61500000
r1.098352941176472 @
r1.072941176470584 G
r1.047529411764708 N
r1.02211764705882 U
b110110 6
1'
1(
#62000000
0'
0(
#62500000
r1.018823529411761 U
r1.044705882352943 N
r1.070588235294113 G
r1.096470588235295 @
b110111 6
1'
1(
#63000000
0'
0(
#63500000
r1.094588235294119 @
r1.068235294117643 G
r1.041882352941178 N
r1.015529411764702 U
b111000 6
1'
1(
#64000000
0'
0(
#64500000
r1.012235294117643 U
r1.039058823529414 N
r1.065882352941172 G
r1.092705882352943 @
b111001 6
1'
1(
#65000000
0'
0(
#65500000
r1.090823529411766 @
r1.063529411764701 G
r1.036235294117649 N
r1.008941176470584 U
b111010 6
1'
1(
#66000000
0'
0(
#66500000
r1.005647058823525 U
r1.033411764705884 N
r1.061176470588231 G
r1.08894117647059 @
b111011 6
1'
1(
#67000000
0'
0(
#67500000
r1.087058823529413 @
r1.05882352941176 G
r1.03058823529412 N
r1.002352941176466 U
b111100 6
1'
1(
#68000000
0'
0(
#68500000
r0.9990588235294077 U
r1.027764705882355 N
r1.056470588235289 G
r1.085176470588237 @
b111101 6
1'
1(
#69000000
0'
0(
#69500000
r1.08329411764706 @
r1.054117647058818 G
r1.02494117647059 N
r0.9957647058823489 U
b111110 6
1'
1(
#70000000
0'
0(
#70500000
r0.9924705882352901 U
r1.022117647058826 N
r1.051764705882348 G
r1.081411764705884 @
b111111 6
1'
1(
#71000000
0'
0(
#71500000
r1.079529411764707 @
r1.049411764705877 G
r1.019294117647061 N
r0.9891764705882313 U
b1000000 6
1'
1(
#72000000
0'
0(
#72500000
r0.9858823529411725 U
r1.016470588235296 N
r1.047058823529406 G
r1.077647058823531 @
b1000001 6
1'
1(
#73000000
0'
0(
#73500000
r1.075764705882355 @
r1.044705882352936 G
r1.013647058823532 N
r0.9825882352941138 U
b1000010 6
1'
1(
#74000000
0'
0(
#74500000
r0.979294117647055 U
r1.010823529411767 N
r1.042352941176465 G
r1.073882352941178 @
b1000011 6
1'
1(
#75000000
0'
0(
#75500000
r1.072000000000002 @
r1.039999999999994 G
r1.008000000000002 N
r0.9759999999999962 U
b1000100 6
1'
1(
#76000000
0'
0(
#76500000
r0.9727058823529374 U
r1.005176470588238 N
r1.037647058823524 G
r1.070117647058825 @
b1000101 6
1'
1(
#77000000
0'
0(
#77500000
r1.068235294117649 @
r1.035294117647053 G
r1.002352941176473 N
r0.9694117647058786 U
b1000110 6
1'
1(
#78000000
0'
0(
#78500000
r0.9661176470588199 U
r0.9995294117647084 N
r1.032941176470582 G
r1.066352941176472 @
b1000111 6
1'
1(
#79000000
0'
0(
#79500000
r1.064470588235296 @
r1.030588235294112 G
r0.9967058823529438 N
r0.9628235294117611 U
b1001000 6
1'
1(
#80000000
0'
0(
#80500000
r0.9595294117647023 U
r0.9938823529411791 N
r1.028235294117641 G
r1.062588235294119 @
b1001001 6
1'
1(
#81000000
0'
0(
#81500000
r1.060705882352943 @
r1.02588235294117 G
r0.9910588235294144 N
r0.9562352941176435 U
b1001010 6
1'
1(
#82000000
0'
0(
#82500000
r0.9529411764705847 U
r0.9882352941176498 N
r1.0235294117647 G
r1.058823529411766 @
b1001011 6
1'
1(
#83000000
0'
0(
#83500000
r1.05694117647059 @
r1.021176470588229 G
r0.9854117647058851 N
r0.949647058823526 U
b1001100 6
1'
1(
#84000000
0'
0(
#84500000
r0.9463529411764672 U
r0.9825882352941204 N
r1.018823529411758 G
r1.055058823529414 @
b1001101 6
1'
1(
#85000000
0'
0(
#85500000
r1.053176470588237 @
r1.016470588235288 G
r0.9797647058823558 N
r0.9430588235294084 U
b1001110 6
1'
1(
#86000000
0'
0(
#86500000
r0.9397647058823496 U
r0.9769411764705911 N
r1.014117647058817 G
r1.051294117647061 @
b1001111 6
1'
1(
#87000000
0'
0(
#87500000
r1.049411764705884 @
r1.011764705882346 G
r0.9741176470588264 N
r0.9364705882352908 U
b1010000 6
1'
1(
#88000000
0'
0(
#88500000
r0.9331764705882321 U
r0.9712941176470617 N
r1.009411764705876 G
r1.047529411764708 @
b1010001 6
1'
1(
#89000000
0'
0(
#89500000
r1.045647058823531 @
r1.007058823529405 G
r0.9684705882352971 N
r0.9298823529411733 U
b1010010 6
1'
1(
#90000000
0'
0(
#90500000
r0.9265882352941145 U
r0.9656470588235324 N
r1.004705882352934 G
r1.043764705882355 @
b1010011 6
1'
1(
#91000000
0'
0(
#91500000
r1.041882352941178 @
r1.002352941176464 G
r0.9628235294117677 N
r0.9232941176470557 U
b1010100 6
1'
1(
#92000000
0'
0(
#92500000
r0.9199999999999969 U
r0.9600000000000031 N
r0.9999999999999932 G
r1.040000000000002 @
b1010101 6
1'
1(
#93000000
0'
0(
#93500000
r1.038117647058826 @
r0.9976470588235227 G
r0.9571764705882384 N
r0.9167058823529382 U
b1010110 6
1'
1(
#94000000
0'
0(
#94500000
r0.9134117647058794 U
r0.9543529411764737 N
r0.9952941176470521 G
r1.036235294117649 @
b1010111 6
1'
1(
#95000000
0'
0(
#95500000
r1.034352941176473 @
r0.9929411764705816 G
r0.9515294117647091 N
r0.9101176470588206 U
b1011000 6
1'
1(
#96000000
0'
0(
#96500000
r0.9068235294117618 U
r0.9487058823529444 N
r0.990588235294111 G
r1.032470588235296 @
b1011001 6
1'
1(
#97000000
0'
0(
#97500000
r1.03058823529412 @
r0.9882352941176404 G
r0.9458823529411797 N
r0.903529411764703 U
b1011010 6
1'
1(
#98000000
0'
0(
#98500000
r0.9002352941176442 U
r0.9430588235294151 N
r0.9858823529411699 G
r1.028705882352943 @
b1011011 6
1'
1(
#99000000
0'
0(
#99500000
r1.026823529411767 @
r0.9835294117646993 G
r0.9402352941176504 N
r0.8969411764705855 U
b1011100 6
1'
1(
#100000000
0'
0(
#100500000
r0.8936470588235267 U
r0.9374117647058857 N
r0.9811764705882288 G
r1.02494117647059 @
b1011101 6
1'
1(
#101000000
0'
0(
#101500000
r1.023058823529414 @
r0.9788235294117582 G
r0.9345882352941211 N
r0.8903529411764679 U
b1011110 6
1'
1(
#102000000
0'
0(
#102500000
r0.8870588235294091 U
r0.9317647058823564 N
r0.9764705882352877 G
r1.021176470588238 @
b1011111 6
1'
1(
#103000000
0'
0(
#103500000
r1.019294117647061 @
r0.9741176470588171 G
r0.9289411764705917 N
r0.8837647058823503 U
b1100000 6
1'
1(
#104000000
0'
0(
#104500000
r0.8804705882352916 U
r0.926117647058827 N
r0.9717647058823465 G
r1.017411764705885 @
b1100001 6
1'
1(
#105000000
0'
0(
#105500000
r1.015529411764708 @
r0.969411764705876 G
r0.9232941176470624 N
r0.8771764705882328 U
b1100010 6
1'
1(
#106000000
0'
0(
#106500000
r0.873882352941174 U
r0.9204705882352977 N
r0.9670588235294054 G
r1.013647058823532 @
b1100011 6
1'
1(
#107000000
0'
0(
#107500000
r1.011764705882355 @
r0.9647058823529349 G
r0.917647058823533 N
r0.8705882352941152 U
b1100100 6
1'
1(
#108000000
0'
0(
#108500000
r0.8672941176470564 U
r0.9148235294117684 N
r0.9623529411764643 G
r1.009882352941179 @
b1100101 6
1'
1(
#109000000
0'
0(
#109500000
r1.008000000000002 @
r0.9599999999999937 G
r0.9120000000000037 N
r0.8639999999999977 U
b1100110 6
1'
1(
#110000000
0'
0(
#110500000
r0.8607058823529389 U
r0.909176470588239 N
r0.9576470588235232 G
r1.006117647058826 @
b1100111 6
1'
1(
#111000000
0'
0(
#111500000
r1.00423529411765 @
r0.9552941176470526 G
r0.9063529411764744 N
r0.8574117647058801 U
b1101000 6
1'
1(
#112000000
0'
0(
#112500000
r0.8541176470588213 U
r0.9035294117647097 N
r0.9529411764705821 G
r1.002352941176473 @
b1101001 6
1'
1(
#113000000
0'
0(
#113500000
r1.000470588235297 @
r0.9505882352941115 G
r0.900705882352945 N
r0.8508235294117625 U
b1101010 6
1'
1(
#114000000
0'
0(
#114500000
r0.8475294117647038 U
r0.8978823529411804 N
r0.948235294117641 G
r0.9985882352941202 @
b1101011 6
1'
1(
#115000000
0'
0(
#115500000
r0.9967058823529438 @
r0.9458823529411704 G
r0.8950588235294157 N
r0.844235294117645 U
b1101100 6
1'
1(
#116000000
0'
0(
#116500000
r0.8409411764705862 U
r0.892235294117651 N
r0.9435294117646998 G
r0.9948235294117673 @
b1101101 6
1'
1(
#117000000
0'
0(
#117500000
r0.9929411764705909 @
r0.9411764705882293 G
r0.8894117647058863 N
r0.8376470588235274 U
b1101110 6
1'
1(
#118000000
0'
0(
#118500000
r0.8343529411764686 U
r0.8865882352941217 N
r0.9388235294117587 G
r0.9910588235294144 @
b1101111 6
1'
1(
#119000000
0'
0(
#119500000
r0.989176470588238 @
r0.9364705882352882 G
r0.883764705882357 N
r0.8310588235294099 U
b1110000 6
1'
1(
#120000000
0'
0(
#120500000
r0.8277647058823511 U
r0.8809411764705923 N
r0.9341176470588176 G
r0.9872941176470615 @
b1110001 6
1'
1(
#121000000
0'
0(
#121500000
r0.9854117647058851 @
r0.9317647058823471 G
r0.8781176470588277 N
r0.8244705882352923 U
b1110010 6
1'
1(
#122000000
0'
0(
#122500000
r0.8211764705882335 U
r0.875294117647063 N
r0.9294117647058765 G
r0.9835294117647086 @
b1110011 6
1'
1(
#123000000
0'
0(
#123500000
r0.9816470588235322 @
r0.9270588235294059 G
r0.8724705882352983 N
r0.8178823529411747 U
b1110100 6
1'
1(
#124000000
0'
0(
#124500000
r0.8145882352941159 U
r0.8696470588235337 N
r0.9247058823529354 G
r0.9797647058823558 @
b1110101 6
1'
1(
#125000000
0'
0(
#125500000
r0.9778823529411793 @
r0.9223529411764648 G
r0.866823529411769 N
r0.8112941176470572 U
b1110110 6
1'
1(
#126000000
0'
0(
#126500000
r0.8079999999999984 U
r0.8640000000000043 N
r0.9199999999999943 G
r0.9760000000000029 @
b1110111 6
1'
1(
#127000000
0'
0(
#127500000
r0.9741176470588264 @
r0.9176470588235237 G
r0.8611764705882397 N
r0.8047058823529396 U
b1111000 6
1'
1(
#128000000
0'
0(
#128500000
r0.8014117647058808 U
r0.858352941176475 N
r0.9152941176470532 G
r0.97223529411765 @
b1111001 6
1'
1(
#129000000
0'
0(
#129500000
r0.9703529411764735 @
r0.9129411764705826 G
r0.8555294117647103 N
r0.798117647058822 U
b1111010 6
1'
1(
#130000000
0'
0(
#130500000
r0.7948235294117633 U
r0.8527058823529456 N
r0.910588235294112 G
r0.9684705882352971 @
b1111011 6
1'
1(
#131000000
0'
0(
#131500000
r0.9665882352941206 @
r0.9082352941176415 G
r0.849882352941181 N
r0.7915294117647045 U
b1111100 6
1'
1(
#132000000
0'
0(
#132500000
r0.7882352941176457 U
r0.8470588235294163 N
r0.9058823529411709 G
r0.9647058823529442 @
b1111101 6
1'
1(
#133000000
0'
0(
#133500000
r0.9628235294117677 @
r0.9035294117647004 G
r0.8442352941176516 N
r0.7849411764705869 U
b1111110 6
1'
1(
#134000000
0'
0(
#134500000
r0.7816470588235281 U
r0.841411764705887 N
r0.9011764705882298 G
r0.9609411764705913 @
b1111111 6
1'
1(
#135000000
0'
0(
#135500000
r0.9590588235294149 @
r0.8988235294117592 G
r0.8385882352941223 N
r0.7783529411764694 U
b10000000 6
1'
1(
#136000000
0'
0(
#136500000
r0.7750588235294106 U
r0.8357647058823576 N
r0.8964705882352887 G
r0.9571764705882384 @
b10000001 6
1'
1(
#137000000
0'
0(
#137500000
r0.955294117647062 @
r0.8941176470588181 G
r0.832941176470593 N
r0.7717647058823518 U
b10000010 6
1'
1(
#138000000
0'
0(
#138500000
r0.768470588235293 U
r0.8301176470588283 N
r0.8917647058823476 G
r0.9534117647058855 @
b10000011 6
1'
1(
#139000000
0'
0(
#139500000
r0.9515294117647091 @
r0.889411764705877 G
r0.8272941176470636 N
r0.7651764705882342 U
b10000100 6
1'
1(
#140000000
0'
0(
#140500000
r0.7618823529411755 U
r0.824470588235299 N
r0.8870588235294065 G
r0.9496470588235326 @
b10000101 6
1'
1(
#141000000
0'
0(
#141500000
r0.9477647058823562 @
r0.8847058823529359 G
r0.8216470588235343 N
r0.7585882352941167 U
b10000110 6
1'
1(
#142000000
0'
0(
#142500000
r0.7552941176470579 U
r0.8188235294117696 N
r0.8823529411764653 G
r0.9458823529411797 @
b10000111 6
1'
1(
#143000000
0'
0(
#143500000
r0.9440000000000033 @
r0.8799999999999948 G
r0.8160000000000049 N
r0.7519999999999991 U
b10001000 6
1'
1(
#144000000
0'
0(
#144500000
r0.7487058823529403 U
r0.8131764705882403 N
r0.8776470588235242 G
r0.9421176470588268 @
b10001001 6
1'
1(
#145000000
0'
0(
#145500000
r0.9402352941176504 @
r0.8752941176470537 G
r0.8103529411764756 N
r0.7454117647058816 U
b10001010 6
1'
1(
#146000000
0'
0(
#146500000
r0.7421176470588228 U
r0.8075294117647109 N
r0.8729411764705831 G
r0.9383529411764739 @
b10001011 6
1'
1(
#147000000
0'
0(
#147500000
r0.9364705882352975 @
r0.8705882352941126 G
r0.8047058823529463 N
r0.738823529411764 U
b10001100 6
1'
1(
#148000000
0'
0(
#148500000
r0.7355294117647052 U
r0.8018823529411816 N
r0.868235294117642 G
r0.9345882352941211 @
b10001101 6
1'
1(
#149000000
0'
0(
#149500000
r0.9327058823529446 @
r0.8658823529411714 G
r0.7990588235294169 N
r0.7322352941176464 U
b10001110 6
1'
1(
#150000000
0'
0(
#150500000
r0.7289411764705876 U
r0.7962352941176523 N
r0.8635294117647009 G
r0.9308235294117682 @
b10001111 6
1'
1(
#151000000
0'
0(
#151500000
r0.9289411764705917 @
r0.8611764705882303 G
r0.7934117647058876 N
r0.7256470588235289 U
b10010000 6
1'
1(
#152000000
0'
0(
#152500000
r0.7223529411764701 U
r0.7905882352941229 N
r0.8588235294117598 G
r0.9270588235294153 @
b10010001 6
1'
1(
#153000000
0'
0(
#153500000
r0.9251764705882388 @
r0.8564705882352892 G
r0.7877647058823583 N
r0.7190588235294113 U
b10010010 6
1'
1(
#154000000
0'
0(
#154500000
r0.7157647058823525 U
r0.7849411764705936 N
r0.8541176470588187 G
r0.9232941176470624 @
b10010011 6
1'
1(
#155000000
0'
0(
#155500000
r0.9214117647058859 @
r0.8517647058823481 G
r0.7821176470588289 N
r0.7124705882352937 U
b10010100 6
1'
1(
#156000000
0'
0(
#156500000
r0.709176470588235 U
r0.7792941176470642 N
r0.8494117647058775 G
r0.9195294117647095 @
b10010101 6
1'
1(
#157000000
0'
0(
#157500000
r0.917647058823533 @
r0.847058823529407 G
r0.7764705882352996 N
r0.7058823529411762 U
b10010110 6
1'
1(
#158000000
0'
0(
#158500000
r0.7025882352941174 U
r0.7736470588235349 N
r0.8447058823529364 G
r0.9157647058823566 @
b10010111 6
1'
1(
#159000000
0'
0(
#159500000
r0.9138823529411801 @
r0.8423529411764659 G
r0.7708235294117702 N
r0.6992941176470586 U
b10011000 6
1'
1(
#160000000
0'
0(
#160500000
r0.6959999999999998 U
r0.7680000000000056 N
r0.8399999999999953 G
r0.9120000000000037 @
b10011001 6
1'
1(
#161000000
0'
0(
#161500000
r0.9101176470588273 @
r0.8376470588235247 G
r0.7651764705882409 N
r0.6927058823529411 U
b10011010 6
1'
1(
#162000000
0'
0(
#162500000
r0.6894117647058823 U
r0.7623529411764762 N
r0.8352941176470542 G
r0.9082352941176508 @
b10011011 6
1'
1(
#163000000
0'
0(
#163500000
r0.9063529411764744 @
r0.8329411764705836 G
r0.7595294117647116 N
r0.6861176470588235 U
b10011100 6
1'
1(
#164000000
0'
0(
#164500000
r0.6828235294117647 U
r0.7567058823529469 N
r0.8305882352941131 G
r0.9044705882352979 @
b10011101 6
1'
1(
#165000000
0'
0(
#165500000
r0.9025882352941215 @
r0.8282352941176425 G
r0.7538823529411822 N
r0.6795294117647059 U
b10011110 6
1'
1(
#166000000
0'
0(
#166500000
r0.6762352941176472 U
r0.7510588235294176 N
r0.825882352941172 G
r0.900705882352945 @
b10011111 6
1'
1(
#167000000
0'
0(
#167500000
r0.8988235294117686 @
r0.8235294117647014 G
r0.7482352941176529 N
r0.6729411764705884 U
b10100000 6
1'
1(
#168000000
0'
0(
#168500000
r0.6696470588235296 U
r0.7454117647058882 N
r0.8211764705882308 G
r0.8969411764705921 @
b10100001 6
1'
1(
#169000000
0'
0(
#169500000
r0.8950588235294157 @
r0.8188235294117603 G
r0.7425882352941235 N
r0.6663529411764708 U
b10100010 6
1'
1(
#170000000
0'
0(
#170500000
r0.663058823529412 U
r0.7397647058823589 N
r0.8164705882352897 G
r0.8931764705882392 @
b10100011 6
1'
1(
#171000000
0'
0(
#171500000
r0.8912941176470628 @
r0.8141176470588192 G
r0.7369411764705942 N
r0.6597647058823533 U
b10100100 6
1'
1(
#172000000
0'
0(
#172500000
r0.6564705882352945 U
r0.7341176470588295 N
r0.8117647058823486 G
r0.8894117647058863 @
b10100101 6
1'
1(
#173000000
0'
0(
#173500000
r0.8875294117647099 @
r0.8094117647058781 G
r0.7312941176470649 N
r0.6531764705882357 U
b10100110 6
1'
1(
#174000000
0'
0(
#174500000
r0.6498823529411769 U
r0.7284705882353002 N
r0.8070588235294075 G
r0.8856470588235335 @
b10100111 6
1'
1(
#175000000
0'
0(
#175500000
r0.883764705882357 @
r0.8047058823529369 G
r0.7256470588235355 N
r0.6465882352941181 U
b10101000 6
1'
1(
#176000000
0'
0(
#176500000
r0.6432941176470593 U
r0.7228235294117709 N
r0.8023529411764664 G
r0.8818823529411806 @
b10101001 6
1'
1(
#177000000
0'
0(
#177500000
r0.8800000000000041 @
r0.7999999999999958 G
r0.7200000000000062 N
r0.6400000000000006 U
b10101010 6
1'
1(
#178000000
0'
0(
#178500000
r0.6367058823529418 U
r0.7171764705882415 N
r0.7976470588235253 G
r0.8781176470588277 @
b10101011 6
1'
1(
#179000000
0'
0(
#179500000
r0.8762352941176512 @
r0.7952941176470547 G
r0.7143529411764769 N
r0.633411764705883 U
b10101100 6
1'
1(
#180000000
0'
0(
