project/verilog/pixelTop_tb.vcd
$date
	Fri Nov 19 03:56:00 2021
$end
$version
	Icarus Verilog
$end
$timescale
	1ps
$end
$scope module pixelTop_tb $end
$var reg 1 ! clk $end
$var reg 1 " reset $end
$var reg 1 # start $end
$scope module pixeltop $end
$var wire 1 $ anaReset $end
$var wire 1 ! clk $end
$var wire 8 % pixData1 [7:0] $end
$var wire 8 & pixData2 [7:0] $end
$var wire 1 " reset $end
$var wire 1 # start $end
$var wire 1 ' read2 $end
$var wire 1 ( read1 $end
$var wire 16 ) pixelDataOut [15:0] $end
$var wire 1 * expose $end
$var wire 1 + erase $end
$var wire 1 , convert $end
$var wire 1 - anaRamp $end
$var wire 1 . anaBias1 $end
$scope module array $end
$var wire 1 $ anaReset $end
$var wire 8 / pixData1 [7:0] $end
$var wire 8 0 pixData2 [7:0] $end
$var wire 1 ' read2 $end
$var wire 1 ( read1 $end
$var wire 1 * expose $end
$var wire 1 + erase $end
$var wire 1 - anaRamp $end
$var wire 1 . anaBias1 $end
$scope module px11 $end
$var wire 8 1 DATA [7:0] $end
$var wire 1 $ RESET $end
$var wire 1 . VBN1 $end
$var wire 1 ( READ $end
$var wire 1 - RAMP $end
$var wire 1 * EXPOSE $end
$var wire 1 + ERASE $end
$var reg 1 2 cmp $end
$var reg 8 3 p_data [7:0] $end
$var real 1 4 adc $end
$var real 1 5 lsb $end
$var real 1 6 tmp $end
$var real 1 7 v_erase $end
$upscope $end
$scope module px12 $end
$var wire 8 8 DATA [7:0] $end
$var wire 1 $ RESET $end
$var wire 1 . VBN1 $end
$var wire 1 ( READ $end
$var wire 1 - RAMP $end
$var wire 1 * EXPOSE $end
$var wire 1 + ERASE $end
$var reg 1 9 cmp $end
$var reg 8 : p_data [7:0] $end
$var real 1 ; adc $end
$var real 1 < lsb $end
$var real 1 = tmp $end
$var real 1 > v_erase $end
$upscope $end
$scope module px21 $end
$var wire 8 ? DATA [7:0] $end
$var wire 1 $ RESET $end
$var wire 1 . VBN1 $end
$var wire 1 ' READ $end
$var wire 1 - RAMP $end
$var wire 1 * EXPOSE $end
$var wire 1 + ERASE $end
$var reg 1 @ cmp $end
$var reg 8 A p_data [7:0] $end
$var real 1 B adc $end
$var real 1 C lsb $end
$var real 1 D tmp $end
$var real 1 E v_erase $end
$upscope $end
$scope module px22 $end
$var wire 8 F DATA [7:0] $end
$var wire 1 $ RESET $end
$var wire 1 . VBN1 $end
$var wire 1 ' READ $end
$var wire 1 - RAMP $end
$var wire 1 * EXPOSE $end
$var wire 1 + ERASE $end
$var reg 1 G cmp $end
$var reg 8 H p_data [7:0] $end
$var real 1 I adc $end
$var real 1 J lsb $end
$var real 1 K tmp $end
$var real 1 L v_erase $end
$upscope $end
$upscope $end
$scope module dacadc $end
$var wire 1 ! clk $end
$var wire 1 * expose $end
$var wire 1 , convert $end
$var wire 1 - anaRamp $end
$var wire 1 . anaBias1 $end
$upscope $end
$scope module databus $end
$var wire 8 M pixData1 [7:0] $end
$var wire 8 N pixData2 [7:0] $end
$var wire 1 " reset $end
$var wire 1 ' read2 $end
$var wire 1 ( read1 $end
$var wire 8 O binData2 [7:0] $end
$var wire 8 P binData1 [7:0] $end
$var reg 16 Q pixelDataOut [15:0] $end
$scope module g2b1 $end
$var wire 8 R gray [7:0] $end
$var wire 8 S bin [7:0] $end
$scope begin genblk1[0] $end
$upscope $end
$scope begin genblk1[1] $end
$upscope $end
$scope begin genblk1[2] $end
$upscope $end
$scope begin genblk1[3] $end
$upscope $end
$scope begin genblk1[4] $end
$upscope $end
$scope begin genblk1[5] $end
$upscope $end
$scope begin genblk1[6] $end
$upscope $end
$scope begin genblk1[7] $end
$upscope $end
$upscope $end
$scope module g2b2 $end
$var wire 8 T gray [7:0] $end
$var wire 8 U bin [7:0] $end
$scope begin genblk1[0] $end
$upscope $end
$scope begin genblk1[1] $end
$upscope $end
$scope begin genblk1[2] $end
$upscope $end
$scope begin genblk1[3] $end
$upscope $end
$scope begin genblk1[4] $end
$upscope $end
$scope begin genblk1[5] $end
$upscope $end
$scope begin genblk1[6] $end
$upscope $end
$scope begin genblk1[7] $end
$upscope $end
$upscope $end
$upscope $end
$scope module graycounter $end
$var wire 1 ! clk $end
$var wire 8 V pixData1 [7:0] $end
$var wire 8 W pixData2 [7:0] $end
$var wire 1 X read $end
$var wire 1 " reset $end
$var wire 1 ' read2 $end
$var wire 1 ( read1 $end
$var wire 1 , convert $end
$var reg 8 Y data [7:0] $end
$var reg 8 Z q [7:0] $end
$upscope $end
$scope module stateMachine1 $end
$var wire 1 ! clk $end
$var wire 1 " reset $end
$var wire 1 # start $end
$var reg 1 , convert $end
$var reg 1 + erase $end
$var reg 1 * expose $end
$var reg 1 ( read1 $end
$var reg 1 ' read2 $end
$var reg 3 [ state [2:0] $end
$var integer 32 \ counter [31:0] $end
$upscope $end
$upscope $end
$upscope $end
$enddefinitions $end
#50000
$dumpvars
b0 \
b101 [
b0 Z
b0 Y
xX
bx W
bx V
bx U
bx T
bx S
bx R
b0 Q
bx P
bx O
bx N
bx M
r1.2 L
r0 K
r0.004705882352941176 J
r0 I
bx H
xG
bx F
r1.2 E
r0 D
r0.004705882352941176 C
r0 B
bx A
x@
bx ?
r1.2 >
r0 =
r0.004705882352941176 <
r0 ;
bx :
x9
bx 8
r1.2 7
r0 6
r0.004705882352941176 5
r0 4
bx 3
x2
bx 1
bx 0
bx /
x.
0-
0,
x+
x*
b0 )
x(
x'
bx &
bx %
1$
0#
0"
1!
$end
#100000
b0 P
b0 S
b0 %
b0 /
b0 1
b0 ?
b0 M
b0 R
b0 V
b0 O
b0 U
b0 &
b0 0
b0 8
b0 F
b0 N
b0 T
b0 W
0X
0G
b0 H
r1.2 K
0@
b0 A
r1.2 D
09
b0 :
r1.2 =
02
b0 3
r1.2 6
0*
0'
0(
0+
0.
0!
#150000
1!
#200000
0!
#250000
1!
#300000
0!
#350000
1!
#400000
0!
#450000
1!
#500000
0!
#550000
1!
#600000
0!
#650000
1!
#700000
0!
#750000
1!
#800000
0!
#850000
1!
#900000
0!
#950000
1!
#1000000
0!
#1050000
1!
#1100000
0!
#1150000
1!
#1200000
0!
#1250000
1!
#1300000
0!
#1350000
1!
#1400000
0!
#1450000
1!
#1500000
0!
#1550000
1!
#1600000
0!
#1650000
1!
#1700000
0!
#1750000
1!
#1800000
0!
#1850000
1!
#1900000
0!
#1950000
1!
#2000000
0!
#2050000
b0 [
1!
1#
#2100000
1+
0!
0#
#2150000
b1 \
1!
#2200000
0!
#2250000
b10 \
1!
#2300000
0!
#2350000
b11 \
1!
#2400000
0!
#2450000
b100 \
1!
#2500000
0!
#2550000
b101 \
1!
#2600000
0!
#2650000
b1 [
b1 \
1!
#2700000
1*
0+
0!
#2750000
r1.196705882352941 K
r1.197176470588235 D
r1.197647058823529 =
r1.198117647058824 6
1.
b10 \
1!
#2800000
0.
0!
#2850000
r1.196235294117647 6
r1.195294117647059 =
r1.194352941176471 D
r1.193411764705882 K
1.
b11 \
1!
#2900000
0.
0!
#2950000
r1.190117647058823 K
r1.191529411764706 D
r1.192941176470588 =
r1.194352941176471 6
1.
b100 \
1!
#3000000
0.
0!
#3050000
r1.192470588235294 6
r1.190588235294117 =
r1.188705882352941 D
r1.186823529411764 K
1.
b101 \
1!
#3100000
0.
0!
#3150000
r1.183529411764705 K
r1.185882352941177 D
r1.188235294117647 =
r1.190588235294118 6
1.
b110 \
1!
#3200000
0.
0!
#3250000
r1.188705882352941 6
r1.185882352941176 =
r1.183058823529412 D
r1.180235294117647 K
1.
b111 \
1!
#3300000
0.
0!
#3350000
r1.176941176470588 K
r1.180235294117647 D
r1.183529411764705 =
r1.186823529411765 6
1.
b1000 \
1!
#3400000
0.
0!
#3450000
r1.184941176470588 6
r1.181176470588235 =
r1.177411764705883 D
r1.173647058823529 K
1.
b1001 \
1!
#3500000
0.
0!
#3550000
r1.17035294117647 K
r1.174588235294118 D
r1.178823529411764 =
r1.183058823529412 6
1.
b1010 \
1!
#3600000
0.
0!
#3650000
r1.181176470588235 6
r1.176470588235293 =
r1.171764705882353 D
r1.167058823529411 K
1.
b1011 \
1!
#3700000
0.
0!
#3750000
r1.163764705882352 K
r1.168941176470589 D
r1.174117647058823 =
r1.179294117647059 6
1.
b1100 \
1!
#3800000
0.
0!
#3850000
r1.177411764705883 6
r1.171764705882352 =
r1.166117647058824 D
r1.160470588235293 K
1.
b1101 \
1!
#3900000
0.
0!
#3950000
r1.157176470588234 K
r1.163294117647059 D
r1.169411764705881 =
r1.175529411764706 6
1.
b1110 \
1!
#4000000
0.
0!
#4050000
r1.17364705882353 6
r1.167058823529411 =
r1.160470588235295 D
r1.153882352941175 K
1.
b1111 \
1!
#4100000
0.
0!
#4150000
r1.150588235294117 K
r1.15764705882353 D
r1.16470588235294 =
r1.171764705882353 6
1.
b10000 \
1!
#4200000
0.
0!
#4250000
r1.169882352941177 6
r1.162352941176469 =
r1.154823529411765 D
r1.147294117647058 K
1.
b10001 \
1!
#4300000
0.
0!
#4350000
r1.143999999999999 K
r1.152000000000001 D
r1.159999999999999 =
r1.168 6
1.
b10010 \
1!
#4400000
0.
0!
#4450000
r1.166117647058824 6
r1.157647058823528 =
r1.149176470588236 D
r1.14070588235294 K
1.
b10011 \
1!
#4500000
0.
0!
#4550000
r1.137411764705881 K
r1.146352941176471 D
r1.155294117647057 =
r1.164235294117647 6
1.
b10100 \
1!
#4600000
0.
0!
#4650000
r1.162352941176471 6
r1.152941176470587 =
r1.143529411764707 D
r1.134117647058822 K
1.
b10101 \
1!
#4700000
0.
0!
#4750000
r1.130823529411763 K
r1.140705882352942 D
r1.150588235294116 =
r1.160470588235295 6
1.
b10110 \
1!
#4800000
0.
0!
#4850000
r1.158588235294118 6
r1.148235294117645 =
r1.137882352941177 D
r1.127529411764704 K
1.
b10111 \
1!
#4900000
0.
0!
#4950000
r1.124235294117645 K
r1.135058823529413 D
r1.145882352941175 =
r1.156705882352942 6
1.
b11000 \
1!
#5000000
0.
0!
#5050000
r1.154823529411765 6
r1.143529411764704 =
r1.132235294117648 D
r1.120941176470587 K
1.
b11001 \
1!
#5100000
0.
0!
#5150000
r1.117647058823528 K
r1.129411764705883 D
r1.141176470588233 =
r1.152941176470589 6
1.
b11010 \
1!
#5200000
0.
0!
#5250000
r1.151058823529412 6
r1.138823529411763 =
r1.126588235294119 D
r1.114352941176469 K
1.
b11011 \
1!
#5300000
0.
0!
#5350000
r1.11105882352941 K
r1.123764705882354 D
r1.136470588235292 =
r1.149176470588236 6
1.
b11100 \
1!
#5400000
0.
0!
#5450000
r1.147294117647059 6
r1.134117647058821 =
r1.120941176470589 D
r1.107764705882351 K
1.
b11101 \
1!
#5500000
0.
0!
#5550000
r1.104470588235292 K
r1.118117647058825 D
r1.131764705882351 =
r1.145411764705883 6
1.
b11110 \
1!
#5600000
0.
0!
#5650000
r1.143529411764707 6
r1.12941176470588 =
r1.11529411764706 D
r1.101176470588233 K
1.
b11111 \
1!
#5700000
0.
0!
#5750000
r1.097882352941174 K
r1.112470588235295 D
r1.127058823529409 =
r1.14164705882353 6
1.
b100000 \
1!
#5800000
0.
0!
#5850000
r1.139764705882354 6
r1.124705882352939 =
r1.109647058823531 D
r1.094588235294115 K
1.
b100001 \
1!
#5900000
0.
0!
#5950000
r1.091294117647057 K
r1.106823529411766 D
r1.122352941176468 =
r1.137882352941177 6
1.
b100010 \
1!
#6000000
0.
0!
#6050000
r1.136000000000001 6
r1.119999999999997 =
r1.104000000000001 D
r1.087999999999998 K
1.
b100011 \
1!
#6100000
0.
0!
#6150000
r1.084705882352939 K
r1.101176470588237 D
r1.117647058823527 =
r1.134117647058824 6
1.
b100100 \
1!
#6200000
0.
0!
#6250000
r1.132235294117648 6
r1.115294117647056 =
r1.098352941176472 D
r1.08141176470588 K
1.
b100101 \
1!
#6300000
0.
0!
#6350000
r1.078117647058821 K
r1.095529411764707 D
r1.112941176470585 =
r1.130352941176471 6
1.
b100110 \
1!
#6400000
0.
0!
#6450000
r1.128470588235295 6
r1.110588235294115 =
r1.092705882352943 D
r1.074823529411762 K
1.
b100111 \
1!
#6500000
0.
0!
#6550000
r1.071529411764703 K
r1.089882352941178 D
r1.108235294117644 =
r1.126588235294119 6
1.
b101000 \
1!
#6600000
0.
0!
#6650000
r1.124705882352942 6
r1.105882352941173 =
r1.087058823529413 D
r1.068235294117644 K
1.
b101001 \
1!
#6700000
0.
0!
#6750000
r1.064941176470585 K
r1.084235294117649 D
r1.103529411764703 =
r1.122823529411766 6
1.
b101010 \
1!
#6800000
0.
0!
#6850000
r1.120941176470589 6
r1.101176470588232 =
r1.081411764705884 D
r1.061647058823527 K
1.
b101011 \
1!
#6900000
0.
0!
#6950000
r1.058352941176468 K
r1.078588235294119 D
r1.098823529411761 =
r1.119058823529413 6
1.
b101100 \
1!
#7000000
0.
0!
#7050000
r1.117176470588236 6
r1.096470588235291 =
r1.075764705882355 D
r1.055058823529409 K
1.
b101101 \
1!
#7100000
0.
0!
#7150000
r1.05176470588235 K
r1.07294117647059 D
r1.09411764705882 =
r1.11529411764706 6
1.
b101110 \
1!
#7200000
0.
0!
#7250000
r1.113411764705883 6
r1.091764705882349 =
r1.070117647058825 D
r1.048470588235291 K
1.
b101111 \
1!
#7300000
0.
0!
#7350000
r1.045176470588232 K
r1.067294117647061 D
r1.089411764705879 =
r1.111529411764707 6
1.
b110000 \
1!
#7400000
0.
0!
#7450000
r1.109647058823531 6
r1.087058823529408 =
r1.064470588235296 D
r1.041882352941173 K
1.
b110001 \
1!
#7500000
0.
0!
#7550000
r1.038588235294114 K
r1.061647058823531 D
r1.084705882352937 =
r1.107764705882354 6
1.
b110010 \
1!
#7600000
0.
0!
#7650000
r1.105882352941178 6
r1.082352941176467 =
r1.058823529411766 D
r1.035294117647055 K
1.
b110011 \
1!
#7700000
0.
0!
#7750000
r1.031999999999996 K
r1.056000000000002 D
r1.079999999999996 =
r1.104000000000001 6
1.
b110100 \
1!
#7800000
0.
0!
#7850000
r1.102117647058825 6
r1.077647058823525 =
r1.053176470588237 D
r1.028705882352938 K
1.
b110101 \
1!
#7900000
0.
0!
#7950000
r1.025411764705879 K
r1.050352941176472 D
r1.075294117647055 =
r1.100235294117648 6
1.
b110110 \
1!
#8000000
0.
0!
#8050000
r1.098352941176472 6
r1.072941176470584 =
r1.047529411764708 D
r1.02211764705882 K
1.
b110111 \
1!
#8100000
0.
0!
#8150000
r1.018823529411761 K
r1.044705882352943 D
r1.070588235294113 =
r1.096470588235295 6
1.
b111000 \
1!
#8200000
0.
0!
#8250000
r1.094588235294119 6
r1.068235294117643 =
r1.041882352941178 D
r1.015529411764702 K
1.
b111001 \
1!
#8300000
0.
0!
#8350000
r1.012235294117643 K
r1.039058823529414 D
r1.065882352941172 =
r1.092705882352943 6
1.
b111010 \
1!
#8400000
0.
0!
#8450000
r1.090823529411766 6
r1.063529411764701 =
r1.036235294117649 D
r1.008941176470584 K
1.
b111011 \
1!
#8500000
0.
0!
#8550000
r1.005647058823525 K
r1.033411764705884 D
r1.061176470588231 =
r1.08894117647059 6
1.
b111100 \
1!
#8600000
0.
0!
#8650000
r1.087058823529413 6
r1.05882352941176 =
r1.03058823529412 D
r1.002352941176466 K
1.
b111101 \
1!
#8700000
0.
0!
#8750000
r0.9990588235294077 K
r1.027764705882355 D
r1.056470588235289 =
r1.085176470588237 6
1.
b111110 \
1!
#8800000
0.
0!
#8850000
r1.08329411764706 6
r1.054117647058818 =
r1.02494117647059 D
r0.9957647058823489 K
1.
b111111 \
1!
#8900000
0.
0!
#8950000
r0.9924705882352901 K
r1.022117647058826 D
r1.051764705882348 =
r1.081411764705884 6
1.
b1000000 \
1!
#9000000
0.
0!
#9050000
r1.079529411764707 6
r1.049411764705877 =
r1.019294117647061 D
r0.9891764705882313 K
1.
b1000001 \
1!
#9100000
0.
0!
#9150000
r0.9858823529411725 K
r1.016470588235296 D
r1.047058823529406 =
r1.077647058823531 6
1.
b1000010 \
1!
#9200000
0.
0!
#9250000
r1.075764705882355 6
r1.044705882352936 =
r1.013647058823532 D
r0.9825882352941138 K
1.
b1000011 \
1!
#9300000
0.
0!
#9350000
r0.979294117647055 K
r1.010823529411767 D
r1.042352941176465 =
r1.073882352941178 6
1.
b1000100 \
1!
#9400000
0.
0!
#9450000
r1.072000000000002 6
r1.039999999999994 =
r1.008000000000002 D
r0.9759999999999962 K
1.
b1000101 \
1!
#9500000
0.
0!
#9550000
r0.9727058823529374 K
r1.005176470588238 D
r1.037647058823524 =
r1.070117647058825 6
1.
b1000110 \
1!
#9600000
0.
0!
#9650000
r1.068235294117649 6
r1.035294117647053 =
r1.002352941176473 D
r0.9694117647058786 K
1.
b1000111 \
1!
#9700000
0.
0!
#9750000
r0.9661176470588199 K
r0.9995294117647084 D
r1.032941176470582 =
r1.066352941176472 6
1.
b1001000 \
1!
#9800000
0.
0!
#9850000
r1.064470588235296 6
r1.030588235294112 =
r0.9967058823529438 D
r0.9628235294117611 K
1.
b1001001 \
1!
#9900000
0.
0!
#9950000
r0.9595294117647023 K
r0.9938823529411791 D
r1.028235294117641 =
r1.062588235294119 6
1.
b1001010 \
1!
#10000000
0.
0!
#10050000
r1.060705882352943 6
r1.02588235294117 =
r0.9910588235294144 D
r0.9562352941176435 K
1.
b1001011 \
1!
#10100000
0.
0!
#10150000
r0.9529411764705847 K
r0.9882352941176498 D
r1.0235294117647 =
r1.058823529411766 6
1.
b1001100 \
1!
#10200000
0.
0!
#10250000
r1.05694117647059 6
r1.021176470588229 =
r0.9854117647058851 D
r0.949647058823526 K
1.
b1001101 \
1!
#10300000
0.
0!
#10350000
r0.9463529411764672 K
r0.9825882352941204 D
r1.018823529411758 =
r1.055058823529414 6
1.
b1001110 \
1!
#10400000
0.
0!
#10450000
r1.053176470588237 6
r1.016470588235288 =
r0.9797647058823558 D
r0.9430588235294084 K
1.
b1001111 \
1!
#10500000
0.
0!
#10550000
r0.9397647058823496 K
r0.9769411764705911 D
r1.014117647058817 =
r1.051294117647061 6
1.
b1010000 \
1!
#10600000
0.
0!
#10650000
r1.049411764705884 6
r1.011764705882346 =
r0.9741176470588264 D
r0.9364705882352908 K
1.
b1010001 \
1!
#10700000
0.
0!
#10750000
r0.9331764705882321 K
r0.9712941176470617 D
r1.009411764705876 =
r1.047529411764708 6
1.
b1010010 \
1!
#10800000
0.
0!
#10850000
r1.045647058823531 6
r1.007058823529405 =
r0.9684705882352971 D
r0.9298823529411733 K
1.
b1010011 \
1!
#10900000
0.
0!
#10950000
r0.9265882352941145 K
r0.9656470588235324 D
r1.004705882352934 =
r1.043764705882355 6
1.
b1010100 \
1!
#11000000
0.
0!
#11050000
r1.041882352941178 6
r1.002352941176464 =
r0.9628235294117677 D
r0.9232941176470557 K
1.
b1010101 \
1!
#11100000
0.
0!
#11150000
r0.9199999999999969 K
r0.9600000000000031 D
r0.9999999999999932 =
r1.040000000000002 6
1.
b1010110 \
1!
#11200000
0.
0!
#11250000
r1.038117647058826 6
r0.9976470588235227 =
r0.9571764705882384 D
r0.9167058823529382 K
1.
b1010111 \
1!
#11300000
0.
0!
#11350000
r0.9134117647058794 K
r0.9543529411764737 D
r0.9952941176470521 =
r1.036235294117649 6
1.
b1011000 \
1!
#11400000
0.
0!
#11450000
r1.034352941176473 6
r0.9929411764705816 =
r0.9515294117647091 D
r0.9101176470588206 K
1.
b1011001 \
1!
#11500000
0.
0!
#11550000
r0.9068235294117618 K
r0.9487058823529444 D
r0.990588235294111 =
r1.032470588235296 6
1.
b1011010 \
1!
#11600000
0.
0!
#11650000
r1.03058823529412 6
r0.9882352941176404 =
r0.9458823529411797 D
r0.903529411764703 K
1.
b1011011 \
1!
#11700000
0.
0!
#11750000
r0.9002352941176442 K
r0.9430588235294151 D
r0.9858823529411699 =
r1.028705882352943 6
1.
b1011100 \
1!
#11800000
0.
0!
#11850000
r1.026823529411767 6
r0.9835294117646993 =
r0.9402352941176504 D
r0.8969411764705855 K
1.
b1011101 \
1!
#11900000
0.
0!
#11950000
r0.8936470588235267 K
r0.9374117647058857 D
r0.9811764705882288 =
r1.02494117647059 6
1.
b1011110 \
1!
#12000000
0.
0!
#12050000
r1.023058823529414 6
r0.9788235294117582 =
r0.9345882352941211 D
r0.8903529411764679 K
1.
b1011111 \
1!
#12100000
0.
0!
#12150000
r0.8870588235294091 K
r0.9317647058823564 D
r0.9764705882352877 =
r1.021176470588238 6
1.
b1100000 \
1!
#12200000
0.
0!
#12250000
r1.019294117647061 6
r0.9741176470588171 =
r0.9289411764705917 D
r0.8837647058823503 K
1.
b1100001 \
1!
#12300000
0.
0!
#12350000
r0.8804705882352916 K
r0.926117647058827 D
r0.9717647058823465 =
r1.017411764705885 6
1.
b1100010 \
1!
#12400000
0.
0!
#12450000
r1.015529411764708 6
r0.969411764705876 =
r0.9232941176470624 D
r0.8771764705882328 K
1.
b1100011 \
1!
#12500000
0.
0!
#12550000
r0.873882352941174 K
r0.9204705882352977 D
r0.9670588235294054 =
r1.013647058823532 6
1.
b1100100 \
1!
#12600000
0.
0!
#12650000
r1.011764705882355 6
r0.9647058823529349 =
r0.917647058823533 D
r0.8705882352941152 K
1.
b1100101 \
1!
#12700000
0.
0!
#12750000
r0.8672941176470564 K
r0.9148235294117684 D
r0.9623529411764643 =
r1.009882352941179 6
1.
b1100110 \
1!
#12800000
0.
0!
#12850000
r1.008000000000002 6
r0.9599999999999937 =
r0.9120000000000037 D
r0.8639999999999977 K
1.
b1100111 \
1!
#12900000
0.
0!
#12950000
r0.8607058823529389 K
r0.909176470588239 D
r0.9576470588235232 =
r1.006117647058826 6
1.
b1101000 \
1!
#13000000
0.
0!
#13050000
r1.00423529411765 6
r0.9552941176470526 =
r0.9063529411764744 D
r0.8574117647058801 K
1.
b1101001 \
1!
#13100000
0.
0!
#13150000
r0.8541176470588213 K
r0.9035294117647097 D
r0.9529411764705821 =
r1.002352941176473 6
1.
b1101010 \
1!
#13200000
0.
0!
#13250000
r1.000470588235297 6
r0.9505882352941115 =
r0.900705882352945 D
r0.8508235294117625 K
1.
b1101011 \
1!
#13300000
0.
0!
#13350000
r0.8475294117647038 K
r0.8978823529411804 D
r0.948235294117641 =
r0.9985882352941202 6
1.
b1101100 \
1!
#13400000
0.
0!
#13450000
r0.9967058823529438 6
r0.9458823529411704 =
r0.8950588235294157 D
r0.844235294117645 K
1.
b1101101 \
1!
#13500000
0.
0!
#13550000
r0.8409411764705862 K
r0.892235294117651 D
r0.9435294117646998 =
r0.9948235294117673 6
1.
b1101110 \
1!
#13600000
0.
0!
#13650000
r0.9929411764705909 6
r0.9411764705882293 =
r0.8894117647058863 D
r0.8376470588235274 K
1.
b1101111 \
1!
#13700000
0.
0!
#13750000
r0.8343529411764686 K
r0.8865882352941217 D
r0.9388235294117587 =
r0.9910588235294144 6
1.
b1110000 \
1!
#13800000
0.
0!
#13850000
r0.989176470588238 6
r0.9364705882352882 =
r0.883764705882357 D
r0.8310588235294099 K
1.
b1110001 \
1!
#13900000
0.
0!
#13950000
r0.8277647058823511 K
r0.8809411764705923 D
r0.9341176470588176 =
r0.9872941176470615 6
1.
b1110010 \
1!
#14000000
0.
0!
#14050000
r0.9854117647058851 6
r0.9317647058823471 =
r0.8781176470588277 D
r0.8244705882352923 K
1.
b1110011 \
1!
#14100000
0.
0!
#14150000
r0.8211764705882335 K
r0.875294117647063 D
r0.9294117647058765 =
r0.9835294117647086 6
1.
b1110100 \
1!
#14200000
0.
0!
#14250000
r0.9816470588235322 6
r0.9270588235294059 =
r0.8724705882352983 D
r0.8178823529411747 K
1.
b1110101 \
1!
#14300000
0.
0!
#14350000
r0.8145882352941159 K
r0.8696470588235337 D
r0.9247058823529354 =
r0.9797647058823558 6
1.
b1110110 \
1!
#14400000
0.
0!
#14450000
r0.9778823529411793 6
r0.9223529411764648 =
r0.866823529411769 D
r0.8112941176470572 K
1.
b1110111 \
1!
#14500000
0.
0!
#14550000
r0.8079999999999984 K
r0.8640000000000043 D
r0.9199999999999943 =
r0.9760000000000029 6
1.
b1111000 \
1!
#14600000
0.
0!
#14650000
r0.9741176470588264 6
r0.9176470588235237 =
r0.8611764705882397 D
r0.8047058823529396 K
1.
b1111001 \
1!
#14700000
0.
0!
#14750000
r0.8014117647058808 K
r0.858352941176475 D
r0.9152941176470532 =
r0.97223529411765 6
1.
b1111010 \
1!
#14800000
0.
0!
#14850000
r0.9703529411764735 6
r0.9129411764705826 =
r0.8555294117647103 D
r0.798117647058822 K
1.
b1111011 \
1!
#14900000
0.
0!
#14950000
r0.7948235294117633 K
r0.8527058823529456 D
r0.910588235294112 =
r0.9684705882352971 6
1.
b1111100 \
1!
#15000000
0.
0!
#15050000
r0.9665882352941206 6
r0.9082352941176415 =
r0.849882352941181 D
r0.7915294117647045 K
1.
b1111101 \
1!
#15100000
0.
0!
#15150000
r0.7882352941176457 K
r0.8470588235294163 D
r0.9058823529411709 =
r0.9647058823529442 6
1.
b1111110 \
1!
#15200000
0.
0!
#15250000
r0.9628235294117677 6
r0.9035294117647004 =
r0.8442352941176516 D
r0.7849411764705869 K
1.
b1111111 \
1!
#15300000
0.
0!
#15350000
r0.7816470588235281 K
r0.841411764705887 D
r0.9011764705882298 =
r0.9609411764705913 6
1.
b10000000 \
1!
#15400000
0.
0!
#15450000
r0.9590588235294149 6
r0.8988235294117592 =
r0.8385882352941223 D
r0.7783529411764694 K
1.
b10000001 \
1!
#15500000
0.
0!
#15550000
r0.7750588235294106 K
r0.8357647058823576 D
r0.8964705882352887 =
r0.9571764705882384 6
1.
b10000010 \
1!
#15600000
0.
0!
#15650000
r0.955294117647062 6
r0.8941176470588181 =
r0.832941176470593 D
r0.7717647058823518 K
1.
b10000011 \
1!
#15700000
0.
0!
#15750000
r0.768470588235293 K
r0.8301176470588283 D
r0.8917647058823476 =
r0.9534117647058855 6
1.
b10000100 \
1!
#15800000
0.
0!
#15850000
r0.9515294117647091 6
r0.889411764705877 =
r0.8272941176470636 D
r0.7651764705882342 K
1.
b10000101 \
1!
#15900000
0.
0!
#15950000
r0.7618823529411755 K
r0.824470588235299 D
r0.8870588235294065 =
r0.9496470588235326 6
1.
b10000110 \
1!
#16000000
0.
0!
#16050000
r0.9477647058823562 6
r0.8847058823529359 =
r0.8216470588235343 D
r0.7585882352941167 K
1.
b10000111 \
1!
#16100000
0.
0!
#16150000
r0.7552941176470579 K
r0.8188235294117696 D
r0.8823529411764653 =
r0.9458823529411797 6
1.
b10001000 \
1!
#16200000
0.
0!
#16250000
r0.9440000000000033 6
r0.8799999999999948 =
r0.8160000000000049 D
r0.7519999999999991 K
1.
b10001001 \
1!
#16300000
0.
0!
#16350000
r0.7487058823529403 K
r0.8131764705882403 D
r0.8776470588235242 =
r0.9421176470588268 6
1.
b10001010 \
1!
#16400000
0.
0!
#16450000
r0.9402352941176504 6
r0.8752941176470537 =
r0.8103529411764756 D
r0.7454117647058816 K
1.
b10001011 \
1!
#16500000
0.
0!
#16550000
r0.7421176470588228 K
r0.8075294117647109 D
r0.8729411764705831 =
r0.9383529411764739 6
1.
b10001100 \
1!
#16600000
0.
0!
#16650000
r0.9364705882352975 6
r0.8705882352941126 =
r0.8047058823529463 D
r0.738823529411764 K
1.
b10001101 \
1!
#16700000
0.
0!
#16750000
r0.7355294117647052 K
r0.8018823529411816 D
r0.868235294117642 =
r0.9345882352941211 6
1.
b10001110 \
1!
#16800000
0.
0!
#16850000
r0.9327058823529446 6
r0.8658823529411714 =
r0.7990588235294169 D
r0.7322352941176464 K
1.
b10001111 \
1!
#16900000
0.
0!
#16950000
r0.7289411764705876 K
r0.7962352941176523 D
r0.8635294117647009 =
r0.9308235294117682 6
1.
b10010000 \
1!
#17000000
0.
0!
#17050000
r0.9289411764705917 6
r0.8611764705882303 =
r0.7934117647058876 D
r0.7256470588235289 K
1.
b10010001 \
1!
#17100000
0.
0!
#17150000
r0.7223529411764701 K
r0.7905882352941229 D
r0.8588235294117598 =
r0.9270588235294153 6
1.
b10010010 \
1!
#17200000
0.
0!
#17250000
r0.9251764705882388 6
r0.8564705882352892 =
r0.7877647058823583 D
r0.7190588235294113 K
1.
b10010011 \
1!
#17300000
0.
0!
#17350000
r0.7157647058823525 K
r0.7849411764705936 D
r0.8541176470588187 =
r0.9232941176470624 6
1.
b10010100 \
1!
#17400000
0.
0!
#17450000
r0.9214117647058859 6
r0.8517647058823481 =
r0.7821176470588289 D
r0.7124705882352937 K
1.
b10010101 \
1!
#17500000
0.
0!
#17550000
r0.709176470588235 K
r0.7792941176470642 D
r0.8494117647058775 =
r0.9195294117647095 6
1.
b10010110 \
1!
#17600000
0.
0!
#17650000
r0.917647058823533 6
r0.847058823529407 =
r0.7764705882352996 D
r0.7058823529411762 K
1.
b10010111 \
1!
#17700000
0.
0!
#17750000
r0.7025882352941174 K
r0.7736470588235349 D
r0.8447058823529364 =
r0.9157647058823566 6
1.
b10011000 \
1!
#17800000
0.
0!
#17850000
r0.9138823529411801 6
r0.8423529411764659 =
r0.7708235294117702 D
r0.6992941176470586 K
1.
b10011001 \
1!
#17900000
0.
0!
#17950000
r0.6959999999999998 K
r0.7680000000000056 D
r0.8399999999999953 =
r0.9120000000000037 6
1.
b10011010 \
1!
#18000000
0.
0!
#18050000
r0.9101176470588273 6
r0.8376470588235247 =
r0.7651764705882409 D
r0.6927058823529411 K
1.
b10011011 \
1!
#18100000
0.
0!
#18150000
r0.6894117647058823 K
r0.7623529411764762 D
r0.8352941176470542 =
r0.9082352941176508 6
1.
b10011100 \
1!
#18200000
0.
0!
#18250000
r0.9063529411764744 6
r0.8329411764705836 =
r0.7595294117647116 D
r0.6861176470588235 K
1.
b10011101 \
1!
#18300000
0.
0!
