project/verilog/pixelTop_tb.vcd
$date
	Wed Nov 17 22:48:22 2021
$end
$version
	Icarus Verilog
$end
$timescale
	1ps
$end
$scope module pixelTop_tb $end
$var reg 1 ! clk $end
$var reg 1 " reset $end
$scope module pixeltop $end
$var wire 1 # anaReset $end
$var wire 1 ! clk $end
$var wire 8 $ pixData11 [7:0] $end
$var wire 8 % pixData12 [7:0] $end
$var wire 8 & pixData21 [7:0] $end
$var wire 8 ' pixData22 [7:0] $end
$var wire 1 " reset $end
$var wire 1 ( read2 $end
$var wire 1 ) read1 $end
$var wire 16 * pixelDataOut2 [15:0] $end
$var wire 16 + pixelDataOut1 [15:0] $end
$var wire 1 , expose $end
$var wire 1 - erase $end
$var wire 8 . data [7:0] $end
$var wire 1 / convert $end
$var wire 1 0 anaRamp $end
$var wire 1 1 anaBias1 $end
$scope module array $end
$var wire 8 2 DATA11 [7:0] $end
$var wire 8 3 DATA12 [7:0] $end
$var wire 8 4 DATA21 [7:0] $end
$var wire 8 5 DATA22 [7:0] $end
$var wire 1 # RESET $end
$var wire 1 1 VBN1 $end
$var wire 1 ( READ2 $end
$var wire 1 ) READ1 $end
$var wire 1 0 RAMP $end
$var wire 1 , EXPOSE $end
$var wire 1 - ERASE $end
$scope module px11 $end
$var wire 8 6 DATA [7:0] $end
$var wire 1 # RESET $end
$var wire 1 1 VBN1 $end
$var wire 1 ) READ $end
$var wire 1 0 RAMP $end
$var wire 1 , EXPOSE $end
$var wire 1 - ERASE $end
$var reg 1 7 cmp $end
$var reg 8 8 p_data [7:0] $end
$var real 1 9 adc $end
$var real 1 : lsb $end
$var real 1 ; tmp $end
$var real 1 < v_erase $end
$upscope $end
$scope module px12 $end
$var wire 8 = DATA [7:0] $end
$var wire 1 # RESET $end
$var wire 1 1 VBN1 $end
$var wire 1 ) READ $end
$var wire 1 0 RAMP $end
$var wire 1 , EXPOSE $end
$var wire 1 - ERASE $end
$var reg 1 > cmp $end
$var reg 8 ? p_data [7:0] $end
$var real 1 @ adc $end
$var real 1 A lsb $end
$var real 1 B tmp $end
$var real 1 C v_erase $end
$upscope $end
$scope module px21 $end
$var wire 8 D DATA [7:0] $end
$var wire 1 # RESET $end
$var wire 1 1 VBN1 $end
$var wire 1 ( READ $end
$var wire 1 0 RAMP $end
$var wire 1 , EXPOSE $end
$var wire 1 - ERASE $end
$var reg 1 E cmp $end
$var reg 8 F p_data [7:0] $end
$var real 1 G adc $end
$var real 1 H lsb $end
$var real 1 I tmp $end
$var real 1 J v_erase $end
$upscope $end
$scope module px22 $end
$var wire 8 K DATA [7:0] $end
$var wire 1 # RESET $end
$var wire 1 1 VBN1 $end
$var wire 1 ( READ $end
$var wire 1 0 RAMP $end
$var wire 1 , EXPOSE $end
$var wire 1 - ERASE $end
$var reg 1 L cmp $end
$var reg 8 M p_data [7:0] $end
$var real 1 N adc $end
$var real 1 O lsb $end
$var real 1 P tmp $end
$var real 1 Q v_erase $end
$upscope $end
$upscope $end
$scope module dacadc $end
$var wire 1 # anaReset $end
$var wire 1 ! clk $end
$var wire 8 R pixData11 [7:0] $end
$var wire 8 S pixData12 [7:0] $end
$var wire 8 T pixData21 [7:0] $end
$var wire 8 U pixData22 [7:0] $end
$var wire 1 ( read2 $end
$var wire 1 ) read1 $end
$var wire 1 , expose $end
$var wire 8 V data [7:0] $end
$var wire 1 / convert $end
$var wire 1 0 anaRamp $end
$var wire 1 1 anaBias1 $end
$upscope $end
$scope module databus $end
$var wire 1 ! clk $end
$var wire 8 W pixData11 [7:0] $end
$var wire 8 X pixData12 [7:0] $end
$var wire 8 Y pixData21 [7:0] $end
$var wire 8 Z pixData22 [7:0] $end
$var wire 1 " reset $end
$var wire 1 ( read2 $end
$var wire 1 ) read1 $end
$var wire 8 [ binData22 [7:0] $end
$var wire 8 \ binData21 [7:0] $end
$var wire 8 ] binData12 [7:0] $end
$var wire 8 ^ binData11 [7:0] $end
$var reg 16 _ pixelDataOut1 [15:0] $end
$var reg 16 ` pixelDataOut2 [15:0] $end
$scope module g2b1 $end
$var wire 8 a gray [7:0] $end
$var wire 8 b bin [7:0] $end
$scope begin genblk1[0] $end
$upscope $end
$scope begin genblk1[1] $end
$upscope $end
$scope begin genblk1[2] $end
$upscope $end
$scope begin genblk1[3] $end
$upscope $end
$scope begin genblk1[4] $end
$upscope $end
$scope begin genblk1[5] $end
$upscope $end
$scope begin genblk1[6] $end
$upscope $end
$scope begin genblk1[7] $end
$upscope $end
$upscope $end
$scope module g2b2 $end
$var wire 8 c gray [7:0] $end
$var wire 8 d bin [7:0] $end
$scope begin genblk1[0] $end
$upscope $end
$scope begin genblk1[1] $end
$upscope $end
$scope begin genblk1[2] $end
$upscope $end
$scope begin genblk1[3] $end
$upscope $end
$scope begin genblk1[4] $end
$upscope $end
$scope begin genblk1[5] $end
$upscope $end
$scope begin genblk1[6] $end
$upscope $end
$scope begin genblk1[7] $end
$upscope $end
$upscope $end
$scope module g2b3 $end
$var wire 8 e gray [7:0] $end
$var wire 8 f bin [7:0] $end
$scope begin genblk1[0] $end
$upscope $end
$scope begin genblk1[1] $end
$upscope $end
$scope begin genblk1[2] $end
$upscope $end
$scope begin genblk1[3] $end
$upscope $end
$scope begin genblk1[4] $end
$upscope $end
$scope begin genblk1[5] $end
$upscope $end
$scope begin genblk1[6] $end
$upscope $end
$scope begin genblk1[7] $end
$upscope $end
$upscope $end
$scope module g2b4 $end
$var wire 8 g gray [7:0] $end
$var wire 8 h bin [7:0] $end
$scope begin genblk1[0] $end
$upscope $end
$scope begin genblk1[1] $end
$upscope $end
$scope begin genblk1[2] $end
$upscope $end
$scope begin genblk1[3] $end
$upscope $end
$scope begin genblk1[4] $end
$upscope $end
$scope begin genblk1[5] $end
$upscope $end
$scope begin genblk1[6] $end
$upscope $end
$scope begin genblk1[7] $end
$upscope $end
$upscope $end
$upscope $end
$scope module graycounter $end
$var wire 1 ! clk $end
$var wire 1 " reset $end
$var wire 1 / convert $end
$var reg 8 i out [7:0] $end
$var reg 8 j q [7:0] $end
$upscope $end
$scope module stateMachine1 $end
$var wire 1 ! clk $end
$var wire 1 " reset $end
$var reg 1 / convert $end
$var reg 1 - erase $end
$var reg 1 , expose $end
$var reg 3 k next_state [2:0] $end
$var reg 1 ) read1 $end
$var reg 1 ( read2 $end
$var reg 3 l state [2:0] $end
$var integer 32 m counter [31:0] $end
$upscope $end
$upscope $end
$upscope $end
$enddefinitions $end
#500000
$dumpvars
b0 m
b0 l
b0 k
b0 j
b0 i
bx h
bx g
bx f
bx e
bx d
bx c
bx b
bx a
b0 `
b0 _
bx ^
bx ]
bx \
bx [
bx Z
bx Y
bx X
bx W
b0 V
bx U
bx T
bx S
bx R
r1.2 Q
r0 P
r0.004705882352941176 O
r0 N
bx M
xL
bx K
r1.2 J
r0 I
r0.004705882352941176 H
r0 G
bx F
xE
bx D
r1.2 C
r0 B
r0.004705882352941176 A
r0 @
bx ?
x>
bx =
r1.2 <
r0 ;
r0.004705882352941176 :
r0 9
bx 8
x7
bx 6
bx 5
bx 4
bx 3
bx 2
x1
00
0/
b0 .
x-
x,
b0 +
b0 *
x)
x(
bx '
bx &
bx %
bx $
1#
0"
1!
$end
#1000000
b0 [
b0 h
b0 '
b0 5
b0 K
b0 U
b0 Z
b0 g
b0 \
b0 f
b0 &
b0 4
b0 D
b0 T
b0 Y
b0 e
b0 ]
b0 d
b0 %
b0 3
b0 =
b0 S
b0 X
b0 c
b0 ^
b0 b
b0 $
b0 2
b0 6
b0 R
b0 W
b0 a
0L
b0 M
r1.2 P
0E
b0 F
r1.2 I
0>
b0 ?
r1.2 B
07
b0 8
r1.2 ;
0,
0(
0)
1-
01
0!
#1500000
b1 m
1!
#2000000
0!
#2500000
b10 m
1!
#3000000
0!
#3500000
b11 m
1!
#4000000
0!
#4500000
b100 m
1!
#5000000
0!
#5500000
b101 m
1!
#6000000
0!
#6500000
b101 l
b1 k
b110 m
1!
#7000000
0-
0!
#7500000
b1 l
b0 m
1!
#8000000
1,
0!
#8500000
r1.196705882352941 P
r1.197176470588235 I
r1.197647058823529 B
r1.198117647058824 ;
11
b1 m
1!
#9000000
01
0!
#9500000
r1.196235294117647 ;
r1.195294117647059 B
r1.194352941176471 I
r1.193411764705882 P
11
b10 m
1!
#10000000
01
0!
#10500000
r1.190117647058823 P
r1.191529411764706 I
r1.192941176470588 B
r1.194352941176471 ;
11
b11 m
1!
#11000000
01
0!
#11500000
r1.192470588235294 ;
r1.190588235294117 B
r1.188705882352941 I
r1.186823529411764 P
11
b100 m
1!
#12000000
01
0!
#12500000
r1.183529411764705 P
r1.185882352941177 I
r1.188235294117647 B
r1.190588235294118 ;
11
b101 m
1!
#13000000
01
0!
#13500000
r1.188705882352941 ;
r1.185882352941176 B
r1.183058823529412 I
r1.180235294117647 P
11
b110 m
1!
#14000000
01
0!
#14500000
r1.176941176470588 P
r1.180235294117647 I
r1.183529411764705 B
r1.186823529411765 ;
11
b111 m
1!
#15000000
01
0!
#15500000
r1.184941176470588 ;
r1.181176470588235 B
r1.177411764705883 I
r1.173647058823529 P
11
b1000 m
1!
#16000000
01
0!
#16500000
r1.17035294117647 P
r1.174588235294118 I
r1.178823529411764 B
r1.183058823529412 ;
11
b1001 m
1!
#17000000
01
0!
#17500000
r1.181176470588235 ;
r1.176470588235293 B
r1.171764705882353 I
r1.167058823529411 P
11
b1010 m
1!
#18000000
01
0!
#18500000
r1.163764705882352 P
r1.168941176470589 I
r1.174117647058823 B
r1.179294117647059 ;
11
b1011 m
1!
#19000000
01
0!
#19500000
r1.177411764705883 ;
r1.171764705882352 B
r1.166117647058824 I
r1.160470588235293 P
11
b1100 m
1!
#20000000
01
0!
#20500000
r1.157176470588234 P
r1.163294117647059 I
r1.169411764705881 B
r1.175529411764706 ;
11
b1101 m
1!
#21000000
01
0!
#21500000
r1.17364705882353 ;
r1.167058823529411 B
r1.160470588235295 I
r1.153882352941175 P
11
b1110 m
1!
#22000000
01
0!
#22500000
r1.150588235294117 P
r1.15764705882353 I
r1.16470588235294 B
r1.171764705882353 ;
11
b1111 m
1!
#23000000
01
0!
#23500000
r1.169882352941177 ;
r1.162352941176469 B
r1.154823529411765 I
r1.147294117647058 P
11
b10000 m
1!
#24000000
01
0!
#24500000
r1.143999999999999 P
r1.152000000000001 I
r1.159999999999999 B
r1.168 ;
11
b10001 m
1!
#25000000
01
0!
#25500000
r1.166117647058824 ;
r1.157647058823528 B
r1.149176470588236 I
r1.14070588235294 P
11
b10010 m
1!
#26000000
01
0!
#26500000
r1.137411764705881 P
r1.146352941176471 I
r1.155294117647057 B
r1.164235294117647 ;
11
b10011 m
1!
#27000000
01
0!
#27500000
r1.162352941176471 ;
r1.152941176470587 B
r1.143529411764707 I
r1.134117647058822 P
11
b10100 m
1!
#28000000
01
0!
#28500000
r1.130823529411763 P
r1.140705882352942 I
r1.150588235294116 B
r1.160470588235295 ;
11
b10101 m
1!
#29000000
01
0!
#29500000
r1.158588235294118 ;
r1.148235294117645 B
r1.137882352941177 I
r1.127529411764704 P
11
b10110 m
1!
#30000000
01
0!
#30500000
r1.124235294117645 P
r1.135058823529413 I
r1.145882352941175 B
r1.156705882352942 ;
11
b10111 m
1!
#31000000
01
0!
#31500000
r1.154823529411765 ;
r1.143529411764704 B
r1.132235294117648 I
r1.120941176470587 P
11
b11000 m
1!
#32000000
01
0!
#32500000
r1.117647058823528 P
r1.129411764705883 I
r1.141176470588233 B
r1.152941176470589 ;
11
b11001 m
1!
#33000000
01
0!
#33500000
r1.151058823529412 ;
r1.138823529411763 B
r1.126588235294119 I
r1.114352941176469 P
11
b11010 m
1!
#34000000
01
0!
#34500000
r1.11105882352941 P
r1.123764705882354 I
r1.136470588235292 B
r1.149176470588236 ;
11
b11011 m
1!
#35000000
01
0!
#35500000
r1.147294117647059 ;
r1.134117647058821 B
r1.120941176470589 I
r1.107764705882351 P
11
b11100 m
1!
#36000000
01
0!
#36500000
r1.104470588235292 P
r1.118117647058825 I
r1.131764705882351 B
r1.145411764705883 ;
11
b11101 m
1!
#37000000
01
0!
#37500000
r1.143529411764707 ;
r1.12941176470588 B
r1.11529411764706 I
r1.101176470588233 P
11
b11110 m
1!
#38000000
01
0!
#38500000
r1.097882352941174 P
r1.112470588235295 I
r1.127058823529409 B
r1.14164705882353 ;
11
b11111 m
1!
#39000000
01
0!
#39500000
r1.139764705882354 ;
r1.124705882352939 B
r1.109647058823531 I
r1.094588235294115 P
11
b100000 m
1!
#40000000
01
0!
#40500000
r1.091294117647057 P
r1.106823529411766 I
r1.122352941176468 B
r1.137882352941177 ;
11
b100001 m
1!
#41000000
01
0!
#41500000
r1.136000000000001 ;
r1.119999999999997 B
r1.104000000000001 I
r1.087999999999998 P
11
b100010 m
1!
#42000000
01
0!
#42500000
r1.084705882352939 P
r1.101176470588237 I
r1.117647058823527 B
r1.134117647058824 ;
11
b100011 m
1!
#43000000
01
0!
#43500000
r1.132235294117648 ;
r1.115294117647056 B
r1.098352941176472 I
r1.08141176470588 P
11
b100100 m
1!
#44000000
01
0!
#44500000
r1.078117647058821 P
r1.095529411764707 I
r1.112941176470585 B
r1.130352941176471 ;
11
b100101 m
1!
#45000000
01
0!
#45500000
r1.128470588235295 ;
r1.110588235294115 B
r1.092705882352943 I
r1.074823529411762 P
11
b100110 m
1!
#46000000
01
0!
#46500000
r1.071529411764703 P
r1.089882352941178 I
r1.108235294117644 B
r1.126588235294119 ;
11
b100111 m
1!
#47000000
01
0!
#47500000
r1.124705882352942 ;
r1.105882352941173 B
r1.087058823529413 I
r1.068235294117644 P
11
b101000 m
1!
#48000000
01
0!
#48500000
r1.064941176470585 P
r1.084235294117649 I
r1.103529411764703 B
r1.122823529411766 ;
11
b101001 m
1!
#49000000
01
0!
#49500000
r1.120941176470589 ;
r1.101176470588232 B
r1.081411764705884 I
r1.061647058823527 P
11
b101010 m
1!
#50000000
01
0!
#50500000
r1.058352941176468 P
r1.078588235294119 I
r1.098823529411761 B
r1.119058823529413 ;
11
b101011 m
1!
#51000000
01
0!
#51500000
r1.117176470588236 ;
r1.096470588235291 B
r1.075764705882355 I
r1.055058823529409 P
11
b101100 m
1!
#52000000
01
0!
#52500000
r1.05176470588235 P
r1.07294117647059 I
r1.09411764705882 B
r1.11529411764706 ;
11
b101101 m
1!
#53000000
01
0!
#53500000
r1.113411764705883 ;
r1.091764705882349 B
r1.070117647058825 I
r1.048470588235291 P
11
b101110 m
1!
#54000000
01
0!
#54500000
r1.045176470588232 P
r1.067294117647061 I
r1.089411764705879 B
r1.111529411764707 ;
11
b101111 m
1!
#55000000
01
0!
#55500000
r1.109647058823531 ;
r1.087058823529408 B
r1.064470588235296 I
r1.041882352941173 P
11
b110000 m
1!
#56000000
01
0!
#56500000
r1.038588235294114 P
r1.061647058823531 I
r1.084705882352937 B
r1.107764705882354 ;
11
b110001 m
1!
#57000000
01
0!
#57500000
r1.105882352941178 ;
r1.082352941176467 B
r1.058823529411766 I
r1.035294117647055 P
11
b110010 m
1!
#58000000
01
0!
#58500000
r1.031999999999996 P
r1.056000000000002 I
r1.079999999999996 B
r1.104000000000001 ;
11
b110011 m
1!
#59000000
01
0!
#59500000
r1.102117647058825 ;
r1.077647058823525 B
r1.053176470588237 I
r1.028705882352938 P
11
b110100 m
1!
#60000000
01
0!
#60500000
r1.025411764705879 P
r1.050352941176472 I
r1.075294117647055 B
r1.100235294117648 ;
11
b110101 m
1!
#61000000
01
0!
#61500000
r1.098352941176472 ;
r1.072941176470584 B
r1.047529411764708 I
r1.02211764705882 P
11
b110110 m
1!
#62000000
01
0!
#62500000
r1.018823529411761 P
r1.044705882352943 I
r1.070588235294113 B
r1.096470588235295 ;
11
b110111 m
1!
#63000000
01
0!
#63500000
r1.094588235294119 ;
r1.068235294117643 B
r1.041882352941178 I
r1.015529411764702 P
11
b111000 m
1!
#64000000
01
0!
#64500000
r1.012235294117643 P
r1.039058823529414 I
r1.065882352941172 B
r1.092705882352943 ;
11
b111001 m
1!
#65000000
01
0!
#65500000
r1.090823529411766 ;
r1.063529411764701 B
r1.036235294117649 I
r1.008941176470584 P
11
b111010 m
1!
#66000000
01
0!
#66500000
r1.005647058823525 P
r1.033411764705884 I
r1.061176470588231 B
r1.08894117647059 ;
11
b111011 m
1!
#67000000
01
0!
#67500000
r1.087058823529413 ;
r1.05882352941176 B
r1.03058823529412 I
r1.002352941176466 P
11
b111100 m
1!
#68000000
01
0!
#68500000
r0.9990588235294077 P
r1.027764705882355 I
r1.056470588235289 B
r1.085176470588237 ;
11
b111101 m
1!
#69000000
01
0!
#69500000
r1.08329411764706 ;
r1.054117647058818 B
r1.02494117647059 I
r0.9957647058823489 P
11
b111110 m
1!
#70000000
01
0!
#70500000
r0.9924705882352901 P
r1.022117647058826 I
r1.051764705882348 B
r1.081411764705884 ;
11
b111111 m
1!
#71000000
01
0!
#71500000
r1.079529411764707 ;
r1.049411764705877 B
r1.019294117647061 I
r0.9891764705882313 P
11
b1000000 m
1!
#72000000
01
0!
#72500000
r0.9858823529411725 P
r1.016470588235296 I
r1.047058823529406 B
r1.077647058823531 ;
11
b1000001 m
1!
#73000000
01
0!
#73500000
r1.075764705882355 ;
r1.044705882352936 B
r1.013647058823532 I
r0.9825882352941138 P
11
b1000010 m
1!
#74000000
01
0!
#74500000
r0.979294117647055 P
r1.010823529411767 I
r1.042352941176465 B
r1.073882352941178 ;
11
b1000011 m
1!
#75000000
01
0!
#75500000
r1.072000000000002 ;
r1.039999999999994 B
r1.008000000000002 I
r0.9759999999999962 P
11
b1000100 m
1!
#76000000
01
0!
#76500000
r0.9727058823529374 P
r1.005176470588238 I
r1.037647058823524 B
r1.070117647058825 ;
11
b1000101 m
1!
#77000000
01
0!
#77500000
r1.068235294117649 ;
r1.035294117647053 B
r1.002352941176473 I
r0.9694117647058786 P
11
b1000110 m
1!
#78000000
01
0!
#78500000
r0.9661176470588199 P
r0.9995294117647084 I
r1.032941176470582 B
r1.066352941176472 ;
11
b1000111 m
1!
#79000000
01
0!
#79500000
r1.064470588235296 ;
r1.030588235294112 B
r0.9967058823529438 I
r0.9628235294117611 P
11
b1001000 m
1!
#80000000
01
0!
#80500000
r0.9595294117647023 P
r0.9938823529411791 I
r1.028235294117641 B
r1.062588235294119 ;
11
b1001001 m
1!
#81000000
01
0!
#81500000
r1.060705882352943 ;
r1.02588235294117 B
r0.9910588235294144 I
r0.9562352941176435 P
11
b1001010 m
1!
#82000000
01
0!
#82500000
r0.9529411764705847 P
r0.9882352941176498 I
r1.0235294117647 B
r1.058823529411766 ;
11
b1001011 m
1!
#83000000
01
0!
#83500000
r1.05694117647059 ;
r1.021176470588229 B
r0.9854117647058851 I
r0.949647058823526 P
11
b1001100 m
1!
#84000000
01
0!
#84500000
r0.9463529411764672 P
r0.9825882352941204 I
r1.018823529411758 B
r1.055058823529414 ;
11
b1001101 m
1!
#85000000
01
0!
#85500000
r1.053176470588237 ;
r1.016470588235288 B
r0.9797647058823558 I
r0.9430588235294084 P
11
b1001110 m
1!
#86000000
01
0!
#86500000
r0.9397647058823496 P
r0.9769411764705911 I
r1.014117647058817 B
r1.051294117647061 ;
11
b1001111 m
1!
#87000000
01
0!
#87500000
r1.049411764705884 ;
r1.011764705882346 B
r0.9741176470588264 I
r0.9364705882352908 P
11
b1010000 m
1!
#88000000
01
0!
#88500000
r0.9331764705882321 P
r0.9712941176470617 I
r1.009411764705876 B
r1.047529411764708 ;
11
b1010001 m
1!
#89000000
01
0!
#89500000
r1.045647058823531 ;
r1.007058823529405 B
r0.9684705882352971 I
r0.9298823529411733 P
11
b1010010 m
1!
#90000000
01
0!
#90500000
r0.9265882352941145 P
r0.9656470588235324 I
r1.004705882352934 B
r1.043764705882355 ;
11
b1010011 m
1!
#91000000
01
0!
#91500000
r1.041882352941178 ;
r1.002352941176464 B
r0.9628235294117677 I
r0.9232941176470557 P
11
b1010100 m
1!
#92000000
01
0!
#92500000
r0.9199999999999969 P
r0.9600000000000031 I
r0.9999999999999932 B
r1.040000000000002 ;
11
b1010101 m
1!
#93000000
01
0!
#93500000
r1.038117647058826 ;
r0.9976470588235227 B
r0.9571764705882384 I
r0.9167058823529382 P
11
b1010110 m
1!
#94000000
01
0!
#94500000
r0.9134117647058794 P
r0.9543529411764737 I
r0.9952941176470521 B
r1.036235294117649 ;
11
b1010111 m
1!
#95000000
01
0!
#95500000
r1.034352941176473 ;
r0.9929411764705816 B
r0.9515294117647091 I
r0.9101176470588206 P
11
b1011000 m
1!
#96000000
01
0!
#96500000
r0.9068235294117618 P
r0.9487058823529444 I
r0.990588235294111 B
r1.032470588235296 ;
11
b1011001 m
1!
#97000000
01
0!
#97500000
r1.03058823529412 ;
r0.9882352941176404 B
r0.9458823529411797 I
r0.903529411764703 P
11
b1011010 m
1!
#98000000
01
0!
#98500000
r0.9002352941176442 P
r0.9430588235294151 I
r0.9858823529411699 B
r1.028705882352943 ;
11
b1011011 m
1!
#99000000
01
0!
#99500000
r1.026823529411767 ;
r0.9835294117646993 B
r0.9402352941176504 I
r0.8969411764705855 P
11
b1011100 m
1!
#100000000
01
0!
#100500000
r0.8936470588235267 P
r0.9374117647058857 I
r0.9811764705882288 B
r1.02494117647059 ;
11
b1011101 m
1!
#101000000
01
0!
#101500000
r1.023058823529414 ;
r0.9788235294117582 B
r0.9345882352941211 I
r0.8903529411764679 P
11
b1011110 m
1!
#102000000
01
0!
#102500000
r0.8870588235294091 P
r0.9317647058823564 I
r0.9764705882352877 B
r1.021176470588238 ;
11
b1011111 m
1!
#103000000
01
0!
#103500000
r1.019294117647061 ;
r0.9741176470588171 B
r0.9289411764705917 I
r0.8837647058823503 P
11
b1100000 m
1!
#104000000
01
0!
#104500000
r0.8804705882352916 P
r0.926117647058827 I
r0.9717647058823465 B
r1.017411764705885 ;
11
b1100001 m
1!
#105000000
01
0!
#105500000
r1.015529411764708 ;
r0.969411764705876 B
r0.9232941176470624 I
r0.8771764705882328 P
11
b1100010 m
1!
#106000000
01
0!
#106500000
r0.873882352941174 P
r0.9204705882352977 I
r0.9670588235294054 B
r1.013647058823532 ;
11
b1100011 m
1!
#107000000
01
0!
#107500000
r1.011764705882355 ;
r0.9647058823529349 B
r0.917647058823533 I
r0.8705882352941152 P
11
b1100100 m
1!
#108000000
01
0!
#108500000
r0.8672941176470564 P
r0.9148235294117684 I
r0.9623529411764643 B
r1.009882352941179 ;
11
b1100101 m
1!
#109000000
01
0!
#109500000
r1.008000000000002 ;
r0.9599999999999937 B
r0.9120000000000037 I
r0.8639999999999977 P
11
b1100110 m
1!
#110000000
01
0!
#110500000
r0.8607058823529389 P
r0.909176470588239 I
r0.9576470588235232 B
r1.006117647058826 ;
11
b1100111 m
1!
#111000000
01
0!
#111500000
r1.00423529411765 ;
r0.9552941176470526 B
r0.9063529411764744 I
r0.8574117647058801 P
11
b1101000 m
1!
#112000000
01
0!
#112500000
r0.8541176470588213 P
r0.9035294117647097 I
r0.9529411764705821 B
r1.002352941176473 ;
11
b1101001 m
1!
#113000000
01
0!
#113500000
r1.000470588235297 ;
r0.9505882352941115 B
r0.900705882352945 I
r0.8508235294117625 P
11
b1101010 m
1!
#114000000
01
0!
#114500000
r0.8475294117647038 P
r0.8978823529411804 I
r0.948235294117641 B
r0.9985882352941202 ;
11
b1101011 m
1!
#115000000
01
0!
#115500000
r0.9967058823529438 ;
r0.9458823529411704 B
r0.8950588235294157 I
r0.844235294117645 P
11
b1101100 m
1!
#116000000
01
0!
#116500000
r0.8409411764705862 P
r0.892235294117651 I
r0.9435294117646998 B
r0.9948235294117673 ;
11
b1101101 m
1!
#117000000
01
0!
#117500000
r0.9929411764705909 ;
r0.9411764705882293 B
r0.8894117647058863 I
r0.8376470588235274 P
11
b1101110 m
1!
#118000000
01
0!
#118500000
r0.8343529411764686 P
r0.8865882352941217 I
r0.9388235294117587 B
r0.9910588235294144 ;
11
b1101111 m
1!
#119000000
01
0!
#119500000
r0.989176470588238 ;
r0.9364705882352882 B
r0.883764705882357 I
r0.8310588235294099 P
11
b1110000 m
1!
#120000000
01
0!
#120500000
r0.8277647058823511 P
r0.8809411764705923 I
r0.9341176470588176 B
r0.9872941176470615 ;
11
b1110001 m
1!
#121000000
01
0!
#121500000
r0.9854117647058851 ;
r0.9317647058823471 B
r0.8781176470588277 I
r0.8244705882352923 P
11
b1110010 m
1!
#122000000
01
0!
#122500000
r0.8211764705882335 P
r0.875294117647063 I
r0.9294117647058765 B
r0.9835294117647086 ;
11
b1110011 m
1!
#123000000
01
0!
#123500000
r0.9816470588235322 ;
r0.9270588235294059 B
r0.8724705882352983 I
r0.8178823529411747 P
11
b1110100 m
1!
#124000000
01
0!
#124500000
r0.8145882352941159 P
r0.8696470588235337 I
r0.9247058823529354 B
r0.9797647058823558 ;
11
b1110101 m
1!
#125000000
01
0!
#125500000
r0.9778823529411793 ;
r0.9223529411764648 B
r0.866823529411769 I
r0.8112941176470572 P
11
b1110110 m
1!
#126000000
01
0!
#126500000
r0.8079999999999984 P
r0.8640000000000043 I
r0.9199999999999943 B
r0.9760000000000029 ;
11
b1110111 m
1!
#127000000
01
0!
#127500000
r0.9741176470588264 ;
r0.9176470588235237 B
r0.8611764705882397 I
r0.8047058823529396 P
11
b1111000 m
1!
#128000000
01
0!
#128500000
r0.8014117647058808 P
r0.858352941176475 I
r0.9152941176470532 B
r0.97223529411765 ;
11
b1111001 m
1!
#129000000
01
0!
#129500000
r0.9703529411764735 ;
r0.9129411764705826 B
r0.8555294117647103 I
r0.798117647058822 P
11
b1111010 m
1!
#130000000
01
0!
#130500000
r0.7948235294117633 P
r0.8527058823529456 I
r0.910588235294112 B
r0.9684705882352971 ;
11
b1111011 m
1!
#131000000
01
0!
#131500000
r0.9665882352941206 ;
r0.9082352941176415 B
r0.849882352941181 I
r0.7915294117647045 P
11
b1111100 m
1!
#132000000
01
0!
#132500000
r0.7882352941176457 P
r0.8470588235294163 I
r0.9058823529411709 B
r0.9647058823529442 ;
11
b1111101 m
1!
#133000000
01
0!
#133500000
r0.9628235294117677 ;
r0.9035294117647004 B
r0.8442352941176516 I
r0.7849411764705869 P
11
b1111110 m
1!
#134000000
01
0!
#134500000
r0.7816470588235281 P
r0.841411764705887 I
r0.9011764705882298 B
r0.9609411764705913 ;
11
b1111111 m
1!
#135000000
01
0!
#135500000
r0.9590588235294149 ;
r0.8988235294117592 B
r0.8385882352941223 I
r0.7783529411764694 P
11
b10000000 m
1!
#136000000
01
0!
#136500000
r0.7750588235294106 P
r0.8357647058823576 I
r0.8964705882352887 B
r0.9571764705882384 ;
11
b10000001 m
1!
#137000000
01
0!
#137500000
r0.955294117647062 ;
r0.8941176470588181 B
r0.832941176470593 I
r0.7717647058823518 P
11
b10000010 m
1!
#138000000
01
0!
#138500000
r0.768470588235293 P
r0.8301176470588283 I
r0.8917647058823476 B
r0.9534117647058855 ;
11
b10000011 m
1!
#139000000
01
0!
#139500000
r0.9515294117647091 ;
r0.889411764705877 B
r0.8272941176470636 I
r0.7651764705882342 P
11
b10000100 m
1!
#140000000
01
0!
#140500000
r0.7618823529411755 P
r0.824470588235299 I
r0.8870588235294065 B
r0.9496470588235326 ;
11
b10000101 m
1!
#141000000
01
0!
#141500000
r0.9477647058823562 ;
r0.8847058823529359 B
r0.8216470588235343 I
r0.7585882352941167 P
11
b10000110 m
1!
#142000000
01
0!
#142500000
r0.7552941176470579 P
r0.8188235294117696 I
r0.8823529411764653 B
r0.9458823529411797 ;
11
b10000111 m
1!
#143000000
01
0!
#143500000
r0.9440000000000033 ;
r0.8799999999999948 B
r0.8160000000000049 I
r0.7519999999999991 P
11
b10001000 m
1!
#144000000
01
0!
#144500000
r0.7487058823529403 P
r0.8131764705882403 I
r0.8776470588235242 B
r0.9421176470588268 ;
11
b10001001 m
1!
#145000000
01
0!
#145500000
r0.9402352941176504 ;
r0.8752941176470537 B
r0.8103529411764756 I
r0.7454117647058816 P
11
b10001010 m
1!
#146000000
01
0!
#146500000
r0.7421176470588228 P
r0.8075294117647109 I
r0.8729411764705831 B
r0.9383529411764739 ;
11
b10001011 m
1!
#147000000
01
0!
#147500000
r0.9364705882352975 ;
r0.8705882352941126 B
r0.8047058823529463 I
r0.738823529411764 P
11
b10001100 m
1!
#148000000
01
0!
#148500000
r0.7355294117647052 P
r0.8018823529411816 I
r0.868235294117642 B
r0.9345882352941211 ;
11
b10001101 m
1!
#149000000
01
0!
#149500000
r0.9327058823529446 ;
r0.8658823529411714 B
r0.7990588235294169 I
r0.7322352941176464 P
11
b10001110 m
1!
#150000000
01
0!
#150500000
r0.7289411764705876 P
r0.7962352941176523 I
r0.8635294117647009 B
r0.9308235294117682 ;
11
b10001111 m
1!
#151000000
01
0!
#151500000
r0.9289411764705917 ;
r0.8611764705882303 B
r0.7934117647058876 I
r0.7256470588235289 P
11
b10010000 m
1!
#152000000
01
0!
#152500000
r0.7223529411764701 P
r0.7905882352941229 I
r0.8588235294117598 B
r0.9270588235294153 ;
11
b10010001 m
1!
#153000000
01
0!
#153500000
r0.9251764705882388 ;
r0.8564705882352892 B
r0.7877647058823583 I
r0.7190588235294113 P
11
b10010010 m
1!
#154000000
01
0!
#154500000
r0.7157647058823525 P
r0.7849411764705936 I
r0.8541176470588187 B
r0.9232941176470624 ;
11
b10010011 m
1!
#155000000
01
0!
#155500000
r0.9214117647058859 ;
r0.8517647058823481 B
r0.7821176470588289 I
r0.7124705882352937 P
11
b10010100 m
1!
#156000000
01
0!
#156500000
r0.709176470588235 P
r0.7792941176470642 I
r0.8494117647058775 B
r0.9195294117647095 ;
11
b10010101 m
1!
#157000000
01
0!
